<?xml version="1.0" encoding="utf-8" ?>
<svg xmlns="http://www.w3.org/2000/svg" xmlns:ev="http://www.w3.org/2001/xml-events" xmlns:inkscape="http://www.inkscape.org/namespaces/inkscape" xmlns:sodipodi="http://sodipodi.sourceforge.net/DTD/sodipodi-0.dtd" xmlns:xlink="http://www.w3.org/1999/xlink" baseProfile="full" height="325.0mm" id="svg" version="1.1" viewBox="0 0 325.0 325.0" width="325.0mm">
  <defs/>
  <style type="text/css"><![CDATA[@import url(../prj.css);]]></style>
  <g class="prj kitchen_plan" inkscape:groupmode="layer" inkscape:label="prj">
    <g class="Scene_Collection KTC_107_Furniture cupdard_top_prj__kitchen_plan HouseA cupdard_top KTC_A107 prj kitchen_plan" id="cupdard_top_prj__kitchen_plan">
      <path class="Scene_Collection KTC_107_Furniture cupdard_top_prj__kitchen_plan HouseA cupdard_top KTC_A107 prj kitchen_plan" d="M 287.42029,284.17999 267.95618,285.35025 259.45416,142.34607 "/>
    </g>
  </g>
  <g inkscape:groupmode="layer" inkscape:label="cut"/>
  <g inkscape:groupmode="layer" inkscape:label="xray"/>
  <g inkscape:groupmode="layer" inkscape:label="hid"/>
  <g inkscape:groupmode="layer" inkscape:label="sym"/>
  <g inkscape:groupmode="layer" inkscape:label="bak"/>
</svg>
<!--
{"subject": "cupdard_top",
"original_name": "Cupdard_top",
"resolution": [325, 325],
"force": "False",
"outline": "False",
"hidden": "False",
"back": "False",
"symbol": "False",
"overlaps": [("wall", "None"),("slaba_001", "None"),("kitchen_floor", "None"),("fridge_cabinet__structure", "None"),("plate3_001", "None"),("plate3_002", "None"),],
"render_pixels": [(183855, 183857), (184489, 184507), (185122, 185157), (185769, 185807), (186419, 186457), (187069, 187107), (187719, 187757), (188369, 188407), (189019, 189057), (189669, 189707), (190319, 190357), (190969, 191007), (191619, 191658), (192270, 192308), (192920, 192958), (193570, 193608), (194220, 194258), (194870, 194908), (195520, 195558), (196170, 196208), (196820, 196858), (197470, 197508), (198120, 198158), (198770, 198808), (199420, 199458), (200070, 200108), (200720, 200758), (201370, 201408), (202020, 202059), (202671, 202709), (203321, 203359), (203971, 204009), (204621, 204659), (205271, 205309), (205921, 205959), (206571, 206609), (207221, 207259), (207871, 207909), (208521, 208559), (209171, 209209), (209821, 209859), (210471, 210509), (211121, 211159), (211771, 211809), (212421, 212459), (213071, 213110), (213722, 213760), (214372, 214410), (215022, 215060), (215672, 215710), (216322, 216360), (216972, 217010), (217622, 217660), (218272, 218310), (218922, 218960), (219572, 219610), (220222, 220260), (220872, 220910), (221522, 221560), (222172, 222210), (222822, 222860), (223472, 223510), (224122, 224161), (224773, 224811), (225423, 225461), (226073, 226111), (226723, 226761), (227373, 227411), (228023, 228061), (228673, 228711), (229323, 229361), (229973, 230011), (230623, 230661), (231273, 231311), (231923, 231961), (232573, 232611), (233223, 233261), (233873, 233911), (234523, 234561), (235173, 235212), (235824, 235862), (236474, 236512), (237124, 237162), (237774, 237812), (238424, 238462), (239074, 239112), (239724, 239762), (240374, 240412), (241024, 241062), (241674, 241712), (242324, 242362), (242974, 243012), (243624, 243662), (244274, 244312), (244924, 244962), (245574, 245612), (246224, 246263), (246875, 246913), (247525, 247563), (248175, 248213), (248825, 248863), (249475, 249513), (250125, 250163), (250775, 250813), (251425, 251463), (252075, 252113), (252725, 252763), (253375, 253413), (254025, 254063), (254675, 254713), (255325, 255363), (255975, 256013), (256625, 256664), (257275, 257314), (257926, 257964), (258576, 258614), (259226, 259264), (259876, 259914), (260526, 260564), (261176, 261214), (261826, 261864), (262476, 262514), (263126, 263164), (263776, 263814), (264426, 264464), (265076, 265114), (265726, 265764), (266376, 266414), (267026, 267064), (267676, 267715), (268327, 268365), (268977, 269015), (269627, 269665), (270277, 270315), (270927, 270965), (271577, 271615), (272227, 272265), (272877, 272915), (273527, 273565), (274177, 274215), (274827, 274865), (275477, 275515), (276127, 276165), (276777, 276815), (277427, 277465), (278077, 278115), (278727, 278766), (279378, 279416), (280028, 280066), (280678, 280716), (281328, 281366), (281978, 282016), (282628, 282666), (283278, 283316), (283928, 283966), (284578, 284616), (285228, 285266), (285878, 285916), (286528, 286566), (287178, 287216), (287828, 287866), (288478, 288516), (289128, 289166), (289778, 289817), (290429, 290467), (291079, 291117), (291729, 291767), (292379, 292417), (293029, 293067), (293679, 293717), (294329, 294367), (294979, 295017), (295629, 295667), (296279, 296317), (296929, 296967), (297579, 297617), (298229, 298267), (298879, 298917), (299529, 299567), (300179, 300217), (300829, 300868), (301480, 301518), (302130, 302168), (302780, 302818), (303430, 303468), (304080, 304118), (304730, 304768), (305380, 305418), (306030, 306068), (306680, 306718), (307330, 307368), (307980, 308018), (308630, 308668), (309280, 309318), (309930, 309968), (310580, 310618), (311230, 311269), (311880, 311919), (312531, 312569), (313181, 313219), (313831, 313869), (314481, 314519), (315131, 315169), (315781, 315819), (316431, 316469), (317081, 317119), (317731, 317769), (318381, 318419), (319031, 319069), (319681, 319719), (320331, 320369), (320981, 321019), (321631, 321669), (322281, 322320), (322932, 322970), (323582, 323620), (324232, 324270), (324882, 324920), (325532, 325570), (326182, 326220), (326832, 326870), (327482, 327520), (328132, 328170), (328782, 328820), (329432, 329470), (330082, 330120), (330732, 330770), (331382, 331420), (332032, 332070), (332682, 332720), (333332, 333371), (333983, 334021), (334633, 334671), (335283, 335321), (335933, 335971), (336583, 336621), (337233, 337271), (337883, 337921), (338533, 338571), (339183, 339221), (339833, 339871), (340483, 340521), (341133, 341171), (341783, 341821), (342433, 342471), (343083, 343121), (343733, 343771), (344383, 344422), (345034, 345072), (345684, 345722), (346334, 346372), (346984, 347022), (347634, 347672), (348284, 348322), (348934, 348972), (349584, 349622), (350234, 350272), (350884, 350922), (351534, 351572), (352184, 352222), (352834, 352872), (353484, 353522), (354134, 354172), (354784, 354822), (355434, 355473), (356085, 356123), (356735, 356773), (357385, 357423), (358035, 358073), (358685, 358723), (359335, 359373), (359985, 360023), (360635, 360673), (361285, 361323), (361935, 361973), (362585, 362623), (363235, 363273), (363885, 363923), (364535, 364573), (365185, 365223), (365835, 365873), (366485, 366523), (367136, 367173), (367786, 367823), (368436, 368473), (369086, 369123), (369736, 369772), (370386, 370405), (371036, 371038)],}
-->