<?xml version="1.0" encoding="utf-8" ?>
<svg xmlns="http://www.w3.org/2000/svg" xmlns:ev="http://www.w3.org/2001/xml-events" xmlns:inkscape="http://www.inkscape.org/namespaces/inkscape" xmlns:sodipodi="http://sodipodi.sourceforge.net/DTD/sodipodi-0.dtd" xmlns:xlink="http://www.w3.org/1999/xlink" baseProfile="full" height="325.0mm" id="svg" version="1.1" viewBox="0 0 325.0 325.0" width="325.0mm">
  <defs/>
  <style type="text/css"><![CDATA[@import url(../prj.css);]]></style>
  <g inkscape:groupmode="layer" inkscape:label="prj"/>
  <g inkscape:groupmode="layer" inkscape:label="cut"/>
  <g inkscape:groupmode="layer" inkscape:label="xray"/>
  <g inkscape:groupmode="layer" inkscape:label="hid"/>
  <g inkscape:groupmode="layer" inkscape:label="sym"/>
  <g inkscape:groupmode="layer" inkscape:label="bak"/>
</svg>
<!--
{"subject": "eames_daw_chair_wire_001",
"original_name": "Eames_Daw_chair_wire.001",
"resolution": [325, 325],
"force": "False",
"outline": "False",
"hidden": "False",
"back": "False",
"symbol": "False",
"overlaps": [("kitchen_floor", "None"),("slaba_001", "None"),("eames_daw_chair_legs_001", "None"),("eames_daw_chair_seat_001", "None"),("table_003", "None"),],
"render_pixels": [(277187, 277187), (277837, 277838), (278487, 278487), (278491, 278491), (279137, 279137), (279143, 279143), (279787, 279787), (279796, 279796), (280437, 280437), (280448, 280448), (281087, 281087), (281112, 281117), (281737, 281737), (281740, 281740), (281753, 281753), (282387, 282387), (283037, 283037), (283039, 283039), (283058, 283058), (283066, 283066), (283687, 283687), (283710, 283710), (284337, 284338), (284987, 284987), (285015, 285015), (286287, 286287), (286314, 286314), (288236, 288236), (288263, 288263), (288912, 288912), (289535, 289535), (289562, 289562), (290212, 290212), (290862, 290862), (291484, 291484), (291511, 291512), (292137, 292137), (292162, 292162), (292789, 292789), (292812, 292812), (293433, 293433), (293442, 293442), (293460, 293460), (293462, 293462), (294094, 294094), (294112, 294112), (294732, 294732), (294747, 294747), (294758, 294759), (294762, 294762), (295382, 295382), (295399, 295399), (295412, 295412), (296052, 296052), (296062, 296062), (296704, 296704), (296712, 296712), (297357, 297357), (297362, 297362), (298009, 298009), (298012, 298012), (298662, 298662)],}
-->