<?xml version="1.0" encoding="utf-8" ?>
<svg xmlns="http://www.w3.org/2000/svg" xmlns:ev="http://www.w3.org/2001/xml-events" xmlns:inkscape="http://www.inkscape.org/namespaces/inkscape" xmlns:sodipodi="http://sodipodi.sourceforge.net/DTD/sodipodi-0.dtd" xmlns:xlink="http://www.w3.org/1999/xlink" baseProfile="full" height="325.0mm" id="svg" version="1.1" viewBox="0 0 325.0 325.0" width="325.0mm">
  <defs/>
  <style type="text/css"><![CDATA[@import url(../prj.css);]]></style>
  <g inkscape:groupmode="layer" inkscape:label="prj"/>
  <g class="cut kitchen_plan" inkscape:groupmode="layer" inkscape:label="cut">
    <g class="Scene_Collection HouseA cut insect_screen_003 insect_screen_003_cut__kitchen_plan kitchen_plan" id="insect_screen_003_cut__kitchen_plan">
      <path class="Scene_Collection HouseA cut insect_screen_003 insect_screen_003_cut__kitchen_plan kitchen_plan" d="M 301.03403,86.01672 325.0,84.59201 325.0,84.66716 301.03851,86.0916 Z "/>
    </g>
  </g>
  <g inkscape:groupmode="layer" inkscape:label="xray"/>
  <g inkscape:groupmode="layer" inkscape:label="hid"/>
  <g inkscape:groupmode="layer" inkscape:label="sym"/>
  <g inkscape:groupmode="layer" inkscape:label="bak"/>
</svg>
<!--
{"subject": "insect_screen_003",
"original_name": "insect_screen.003",
"resolution": [325, 325],
"force": "False",
"outline": "False",
"hidden": "False",
"back": "False",
"symbol": "False",
"overlaps": [("threshold_003", "None"),("slaba_001", "None"),("insect_screen_frame_027", "None"),],
"render_pixels": [(110495, 110496), (111128, 111129), (111761, 111763)],}
-->