<?xml version="1.0" encoding="utf-8" ?>
<svg xmlns="http://www.w3.org/2000/svg" xmlns:ev="http://www.w3.org/2001/xml-events" xmlns:inkscape="http://www.inkscape.org/namespaces/inkscape" xmlns:sodipodi="http://sodipodi.sourceforge.net/DTD/sodipodi-0.dtd" xmlns:xlink="http://www.w3.org/1999/xlink" baseProfile="full" height="325.0mm" id="svg" version="1.1" viewBox="0 0 325.0 325.0" width="325.0mm">
  <defs/>
  <style type="text/css"><![CDATA[@import url(../prj.css);]]></style>
  <g class="prj kitchen_plan" inkscape:groupmode="layer" inkscape:label="prj">
    <g class="Scene_Collection FLOOR HouseA kitchen_floor kitchen_floor_prj__kitchen_plan prj kitchen_plan" id="kitchen_floor_prj__kitchen_plan">
      <path class="Scene_Collection FLOOR HouseA kitchen_floor kitchen_floor_prj__kitchen_plan prj kitchen_plan" d="M 137.66363,100.49997 238.37813,94.51257 246.0649,94.05557 "/>
      <path class="Scene_Collection FLOOR HouseA kitchen_floor kitchen_floor_prj__kitchen_plan prj kitchen_plan" d="M 287.42029,284.17999 287.42065,284.18631 "/>
      <path class="Scene_Collection FLOOR HouseA kitchen_floor kitchen_floor_prj__kitchen_plan prj kitchen_plan" d="M 287.43555,284.43588 270.9097,285.41834 "/>
      <path class="Scene_Collection FLOOR HouseA kitchen_floor kitchen_floor_prj__kitchen_plan prj kitchen_plan" d="M 246.25822,286.88382 121.02924,294.32864 "/>
      <path class="Scene_Collection FLOOR HouseA kitchen_floor kitchen_floor_prj__kitchen_plan prj kitchen_plan" d="M 116.5373,294.59567 39.12402,299.19781 "/>
      <path class="Scene_Collection FLOOR HouseA kitchen_floor kitchen_floor_prj__kitchen_plan prj kitchen_plan" d="M 38.82732,294.20664 36.20124,250.03476 "/>
      <path class="Scene_Collection FLOOR HouseA kitchen_floor kitchen_floor_prj__kitchen_plan prj kitchen_plan" d="M 35.8328,243.83551 27.79479,108.62952 "/>
    </g>
  </g>
  <g inkscape:groupmode="layer" inkscape:label="cut"/>
  <g inkscape:groupmode="layer" inkscape:label="xray"/>
  <g inkscape:groupmode="layer" inkscape:label="hid"/>
  <g inkscape:groupmode="layer" inkscape:label="sym"/>
  <g inkscape:groupmode="layer" inkscape:label="bak"/>
</svg>
<!--
{"subject": "kitchen_floor",
"original_name": "Kitchen_floor",
"resolution": [325, 325],
"force": "False",
"outline": "False",
"hidden": "False",
"back": "False",
"symbol": "False",
"overlaps": [("wall", "None"),("slaba_001", "None"),("fridge_cabinet__structure", "None"),("fridge_cabinet__door_001", "None"),("wall_cover", "None"),("kitchen_base_top", "None"),("kitchen_sink", "None"),("kitchen_base_top_003", "None"),("quadro_mixer_ktc_367", "None"),("kitchen_base_top_001", "None"),("fridge_cabinet__door_002", "None"),("plate3", "None"),("plate3_007", "None"),("cupdard_top", "None"),("plate3_001", "None"),("plate3_002", "None"),("eames_daw_chair_legs_002", "None"),("eames_daw_chair_seat_002", "None"),("eames_daw_chair_bolt_002", "None"),("eames_daw_chair_wire_002", "None"),("kitchen_stove", "None"),("table_003", "None"),("eames_daw_chair_seat_001", "None"),("eames_daw_chair_legs_001", "None"),("eames_daw_chair_wire_001", "None"),("eames_daw_chair_legs", "None"),("eames_daw_chair_seat", "None"),("eames_daw_chair_bolt", "None"),("eames_daw_chair_wire", "None"),("skirting_board_014", "None"),("plate3_003", "None"),("vert_016", "None"),],
"render_pixels": [(120786, 120801), (121419, 121451), (122052, 122101), (122686, 122751), (123319, 123401), (123952, 124051), (124585, 124701), (125218, 125351), (125851, 126002), (126485, 126652), (127118, 127302), (127751, 127952), (128384, 128602), (129017, 129252), (129651, 129902), (130284, 130552), (130917, 131202), (131550, 131852), (132183, 132502), (132816, 133152), (133450, 133802), (134083, 134452), (134716, 135102), (135349, 135752), (135982, 136403), (136616, 137053), (137249, 137703), (137882, 138353), (138515, 139003), (139155, 139653), (139805, 140303), (140456, 140953), (141106, 141603), (141756, 142253), (142406, 142903), (143056, 143553), (143706, 144203), (144356, 144853), (145006, 145503), (145656, 146153), (146306, 146803), (146956, 147454), (147606, 148104), (148256, 148754), (148906, 149404), (149556, 150054), (150206, 150704), (150856, 151354), (151507, 152004), (152157, 152654), (152807, 153304), (153457, 153954), (154107, 154604), (154757, 155254), (155407, 155904), (156057, 156554), (156707, 157204), (157357, 157854), (158007, 158505), (158657, 159155), (159307, 159805), (159957, 160455), (160607, 161105), (161257, 161755), (161908, 162405), (162558, 163055), (163208, 163705), (163858, 164355), (164508, 165005), (165158, 165655), (165808, 166305), (166458, 166955), (167108, 167605), (167758, 168255), (168408, 168905), (169058, 169556), (169708, 170206), (170358, 170856), (171008, 171506), (171658, 172156), (172308, 172806), (172959, 173456), (173609, 174106), (174259, 174756), (174909, 175406), (175559, 176056), (176209, 176706), (176859, 177356), (177509, 178006), (178159, 178656), (178809, 179306), (179459, 179956), (180109, 180607), (180759, 181257), (181409, 181907), (182059, 182557), (182709, 183207), (183359, 183857), (184010, 184507), (184660, 185157), (185310, 185807), (185960, 186457), (186610, 187107), (187260, 187757), (187910, 188407), (188560, 189057), (189210, 189707), (189860, 190357), (190510, 191008), (191160, 191658), (191810, 192308), (192460, 192958), (193110, 193608), (193760, 194258), (194410, 194908), (195061, 195558), (195711, 196208), (196361, 196858), (197011, 197508), (197661, 198158), (198311, 198808), (198961, 199458), (199611, 200108), (200261, 200758), (200911, 201408), (201561, 202059), (202211, 202709), (202861, 203359), (203511, 204009), (204161, 204659), (204811, 205309), (205461, 205959), (206112, 206609), (206762, 207259), (207412, 207909), (208062, 208559), (208712, 209209), (209362, 209859), (210012, 210509), (210662, 211159), (211312, 211809), (211962, 212459), (212612, 213110), (213262, 213760), (213912, 214410), (214562, 215060), (215212, 215710), (215862, 216360), (216512, 217010), (217163, 217660), (217813, 218310), (218463, 218960), (219113, 219610), (219763, 220260), (220413, 220910), (221063, 221560), (221713, 222210), (222363, 222860), (223013, 223510), (223663, 224161), (224313, 224811), (224963, 225461), (225613, 226111), (226263, 226761), (226913, 227411), (227564, 228061), (228214, 228711), (228864, 229361), (229514, 230011), (230164, 230661), (230814, 231311), (231464, 231961), (232114, 232611), (232764, 233261), (233414, 233911), (234064, 234561), (234714, 235212), (235364, 235862), (236014, 236512), (236664, 237162), (237314, 237812), (237964, 238462), (238615, 239112), (239265, 239762), (239915, 240412), (240565, 241062), (241215, 241712), (241865, 242362), (242515, 243012), (243165, 243662), (243815, 244312), (244465, 244962), (245115, 245612), (245765, 246263), (246415, 246913), (247065, 247563), (247715, 248213), (248365, 248863), (249015, 249513), (249666, 250163), (250316, 250813), (250966, 251463), (251616, 252113), (252266, 252763), (252916, 253413), (253566, 254063), (254216, 254713), (254866, 255363), (255516, 256013), (256166, 256664), (256816, 257314), (257466, 257964), (258116, 258614), (258766, 259264), (259416, 259914), (260066, 260564), (260717, 261214), (261367, 261864), (262017, 262514), (262667, 263164), (263317, 263814), (263967, 264464), (264617, 265114), (265267, 265764), (265917, 266414), (266567, 267064), (267217, 267715), (267867, 268365), (268517, 269015), (269167, 269665), (269817, 270315), (270467, 270965), (271117, 271615), (271768, 272265), (272418, 272915), (273068, 273565), (273718, 274215), (274368, 274865), (275018, 275515), (275668, 276165), (276318, 276815), (276968, 277465), (277618, 278115), (278268, 278766), (278918, 279416), (279568, 280066), (280218, 280716), (280868, 281366), (281518, 282016), (282169, 282666), (282819, 283316), (283469, 283966), (284119, 284616), (284769, 285266), (285419, 285916), (286069, 286566), (286719, 287216), (287369, 287866), (288019, 288516), (288669, 289166), (289319, 289817), (289969, 290467), (290619, 291117), (291269, 291767), (291919, 292417), (292569, 293067), (293220, 293717), (293870, 294367), (294520, 295017), (295170, 295667), (295820, 296317), (296470, 296967), (297120, 297617), (297770, 298267), (298420, 298917), (299070, 299567), (299720, 300217), (300370, 300868), (301020, 301518), (301670, 302168), (302320, 302818), (302970, 303468), (303620, 304118), (304271, 304768), (304921, 305418), (305571, 306068), (306221, 306718), (306871, 307368), (307521, 308018), (308171, 308668), (308821, 309318), (309471, 309968), (310121, 310618), (310771, 311268), (311421, 311919), (312071, 312569), (312721, 313219), (313371, 313869), (314021, 314519), (314671, 315169), (315322, 315819), (315972, 316469), (316622, 317119), (317272, 317769), (317922, 318419), (318572, 319069), (319222, 319719), (319872, 320369), (320522, 321019), (321172, 321669), (321822, 322320), (322472, 322970), (323122, 323620), (323772, 324270), (324422, 324920), (325072, 325570), (325722, 326220), (326373, 326870), (327023, 327520), (327673, 328170), (328323, 328820), (328973, 329470), (329623, 330120), (330273, 330770), (330923, 331420), (331573, 332070), (332223, 332720), (332873, 333371), (333523, 334021), (334173, 334671), (334823, 335321), (335473, 335971), (336123, 336621), (336773, 337271), (337424, 337921), (338074, 338571), (338724, 339221), (339374, 339871), (340024, 340521), (340674, 341171), (341324, 341821), (341974, 342471), (342624, 343121), (343274, 343771), (343924, 344422), (344574, 345072), (345224, 345722), (345874, 346372), (346524, 347022), (347174, 347672), (347825, 348322), (348475, 348972), (349125, 349622), (349775, 350272), (350425, 350922), (351075, 351572), (351725, 352222), (352375, 352872), (353025, 353522), (353675, 354172), (354325, 354822), (354975, 355473), (355625, 356123), (356275, 356773), (356925, 357423), (357575, 358073), (358225, 358723), (358876, 359373), (359526, 360023), (360176, 360673), (360826, 361323), (361476, 361973), (362126, 362623), (362776, 363273), (363426, 363923), (364076, 364573), (364726, 365223), (365376, 365873), (366026, 366524), (366676, 367174), (367326, 367824), (367976, 368474), (368626, 369124), (369276, 369774), (369927, 370413), (370577, 371046), (371227, 371680), (371877, 372313), (372527, 372946), (373177, 373579), (373827, 374212), (374477, 374846), (375127, 375479), (375777, 376112), (376427, 376745), (377077, 377378), (377727, 378011), (378377, 378645), (379027, 379278), (379677, 379911), (380327, 380544), (380978, 381177), (381628, 381811), (382278, 382444), (382928, 383077), (383578, 383710), (384228, 384343), (384878, 384976), (385528, 385610), (386178, 386243), (386828, 386876), (387478, 387509), (388128, 388142)],}
-->