<?xml version="1.0" encoding="utf-8" ?>
<svg xmlns="http://www.w3.org/2000/svg" xmlns:ev="http://www.w3.org/2001/xml-events" xmlns:inkscape="http://www.inkscape.org/namespaces/inkscape" xmlns:sodipodi="http://sodipodi.sourceforge.net/DTD/sodipodi-0.dtd" xmlns:xlink="http://www.w3.org/1999/xlink" baseProfile="full" height="325.0mm" id="svg" version="1.1" viewBox="0 0 325.0 325.0" width="325.0mm">
  <defs/>
  <style type="text/css"><![CDATA[@import url(../prj.css);]]></style>
  <g inkscape:groupmode="layer" inkscape:label="prj"/>
  <g inkscape:groupmode="layer" inkscape:label="cut"/>
  <g inkscape:groupmode="layer" inkscape:label="xray"/>
  <g inkscape:groupmode="layer" inkscape:label="hid"/>
  <g inkscape:groupmode="layer" inkscape:label="sym"/>
  <g class="bak kitchen_plan" inkscape:groupmode="layer" inkscape:label="bak">
    <g class="Scene_Collection ktc_top_002 KTC_107_Furniture HouseA back bak KTC_A107 ktc_top_002_bak__kitchen_plan kitchen_plan" id="ktc_top_002_bak__kitchen_plan">
      <path class="Scene_Collection ktc_top_002 KTC_107_Furniture HouseA back bak KTC_A107 ktc_top_002_bak__kitchen_plan kitchen_plan" d="M 88.77567,121.18764 60.32598,122.87897 60.38533,123.8772 88.83511,122.18587 Z "/>
      <path class="Scene_Collection ktc_top_002 KTC_107_Furniture HouseA back bak KTC_A107 ktc_top_002_bak__kitchen_plan kitchen_plan" d="M 117.35028,119.48889 88.9005,121.18022 88.95986,122.17845 117.40955,120.48712 Z "/>
    </g>
  </g>
</svg>
<!--
{"subject": "ktc_top_002",
"original_name": "KTC_top.002",
"resolution": [325, 325],
"force": "False",
"outline": "False",
"hidden": "False",
"back": "True",
"symbol": "False",
"overlaps": [],
"render_pixels": [],}
-->