<?xml version="1.0" encoding="utf-8" ?>
<svg xmlns="http://www.w3.org/2000/svg" xmlns:ev="http://www.w3.org/2001/xml-events" xmlns:inkscape="http://www.inkscape.org/namespaces/inkscape" xmlns:sodipodi="http://sodipodi.sourceforge.net/DTD/sodipodi-0.dtd" xmlns:xlink="http://www.w3.org/1999/xlink" baseProfile="full" height="325.0mm" id="svg" version="1.1" viewBox="0 0 325.0 325.0" width="325.0mm">
  <defs/>
  <style type="text/css"><![CDATA[@import url(../prj.css);]]></style>
  <g class="prj kitchen_plan" inkscape:groupmode="layer" inkscape:label="prj">
    <g class="Scene_Collection FLOOR HouseA living_floor_001 living_floor_001_prj__kitchen_plan prj kitchen_plan" id="living_floor_001_prj__kitchen_plan">
      <path class="Scene_Collection FLOOR HouseA living_floor_001 living_floor_001_prj__kitchen_plan prj kitchen_plan" d="M 29.14157,299.79126 28.8004,294.05139 "/>
      <path class="Scene_Collection FLOOR HouseA living_floor_001 living_floor_001_prj__kitchen_plan prj kitchen_plan" d="M 28.78552,293.80182 26.56012,256.36795 "/>
    </g>
  </g>
  <g inkscape:groupmode="layer" inkscape:label="cut"/>
  <g inkscape:groupmode="layer" inkscape:label="xray"/>
  <g inkscape:groupmode="layer" inkscape:label="hid"/>
  <g inkscape:groupmode="layer" inkscape:label="sym"/>
  <g inkscape:groupmode="layer" inkscape:label="bak"/>
</svg>
<!--
{"subject": "living_floor_001",
"original_name": "Living_floor.001",
"resolution": [325, 325],
"force": "False",
"outline": "False",
"hidden": "False",
"back": "False",
"symbol": "False",
"overlaps": [("slaba_001", "None"),("skirting_board_015", "None"),],
"render_pixels": [(139781, 139784), (140415, 140435), (141050, 141085), (141700, 141735), (142350, 142385), (143000, 143035), (143650, 143685), (144300, 144335), (144950, 144985), (145600, 145635), (146250, 146285), (146900, 146935), (147550, 147585), (148200, 148235), (148850, 148885), (149500, 149535), (150150, 150185), (150800, 150835), (151450, 151486), (152100, 152136), (152750, 152786), (153400, 153436), (154050, 154086), (154700, 154736), (155350, 155386), (156000, 156036), (156650, 156686), (157300, 157336), (157950, 157986), (158600, 158636), (159250, 159286), (159900, 159936), (160550, 160586), (161200, 161236), (161850, 161886), (162500, 162537), (163150, 163187), (163800, 163837), (164450, 164487), (165100, 165137), (165750, 165787), (166400, 166437), (167050, 167087), (167700, 167737), (168350, 168387), (169000, 169037), (169650, 169687), (170300, 170337), (170950, 170987), (171600, 171637), (172250, 172287), (172900, 172937), (173550, 173588), (174200, 174238), (174850, 174888), (175500, 175538), (176150, 176188), (176800, 176838), (177450, 177488), (178100, 178138), (178750, 178788), (179400, 179438), (180050, 180088), (180700, 180738), (181350, 181388), (182000, 182038), (182650, 182688), (183300, 183338), (183950, 183988), (184600, 184639), (185250, 185289), (185900, 185939), (186550, 186589), (187200, 187239), (187850, 187889), (188500, 188539), (189150, 189189), (189800, 189839), (190450, 190489), (191100, 191139), (191750, 191789), (192400, 192439), (193050, 193089), (193700, 193739), (194350, 194389), (195000, 195040), (195650, 195690), (196300, 196340), (196950, 196990), (197600, 197640), (198250, 198290), (198900, 198940), (199550, 199590), (200200, 200240), (200850, 200890), (201500, 201540), (202150, 202190), (202800, 202840), (203450, 203490), (204100, 204140), (204750, 204790), (205400, 205440), (206050, 206091), (206700, 206741), (207350, 207391), (208000, 208041), (208650, 208691), (209300, 209341), (209950, 209991), (210600, 210641), (211250, 211291), (211900, 211941), (212550, 212591), (213200, 213241), (213850, 213891), (214500, 214541), (215150, 215191), (215800, 215841), (216450, 216491), (217100, 217142), (217750, 217792), (218400, 218442), (219050, 219092), (219700, 219742), (220350, 220392), (221000, 221042), (221650, 221692), (222300, 222342), (222950, 222992), (223600, 223642), (224250, 224292), (224900, 224942), (225550, 225592), (226200, 226242), (226850, 226892), (227500, 227542), (228150, 228193), (228800, 228843), (229450, 229493), (230100, 230143), (230750, 230793), (231400, 231443), (232050, 232093), (232700, 232743), (233350, 233393), (234000, 234043), (234650, 234693), (235300, 235343), (235950, 235993), (236600, 236643), (237250, 237293), (237900, 237943), (238550, 238593), (239200, 239244), (239850, 239894), (240500, 240544), (241150, 241194), (241800, 241844), (242450, 242494), (243100, 243144), (243750, 243794), (244400, 244444), (245050, 245094), (245700, 245744), (246350, 246394), (247000, 247044), (247650, 247694), (248300, 248344), (248950, 248994), (249600, 249644), (250250, 250295), (250900, 250945), (251550, 251595), (252200, 252245), (252850, 252895), (253500, 253545), (254150, 254195), (254800, 254845), (255450, 255495), (256100, 256145), (256750, 256795), (257400, 257445), (258050, 258095), (258700, 258745), (259350, 259395), (260000, 260045), (260650, 260696), (261300, 261346), (261950, 261996), (262600, 262646), (263250, 263296), (263900, 263946), (264550, 264596), (265200, 265246), (265850, 265896), (266500, 266546), (267150, 267196), (267800, 267846), (268450, 268496), (269100, 269146), (269750, 269796), (270400, 270446), (271050, 271096), (271700, 271747), (272350, 272397), (273000, 273047), (273650, 273697), (274300, 274347), (274950, 274997), (275600, 275647), (276250, 276297), (276900, 276947), (277550, 277597), (278200, 278247), (278850, 278897), (279500, 279547), (280150, 280197), (280800, 280847), (281450, 281497), (282100, 282147), (282750, 282798), (283400, 283448), (284050, 284098), (284700, 284748), (285350, 285398), (286000, 286048), (286650, 286698), (287300, 287348), (287950, 287998), (288600, 288648), (289250, 289298), (289900, 289948), (290550, 290598), (291200, 291248), (291850, 291898), (292500, 292548), (293150, 293198), (293800, 293849), (294450, 294499), (295100, 295149), (295750, 295799), (296400, 296449), (297050, 297099), (297700, 297749), (298350, 298399), (299000, 299049), (299650, 299699), (300300, 300349), (300950, 300999), (301600, 301649), (302250, 302299), (302900, 302949), (303550, 303599), (304200, 304249), (304850, 304900), (305500, 305550), (306150, 306200), (306800, 306850), (307450, 307500), (308100, 308150), (308750, 308800), (309400, 309450), (310050, 310100), (310700, 310750), (311350, 311400), (312000, 312050), (312650, 312700), (313300, 313350), (313950, 314000), (314600, 314650), (315250, 315300), (315900, 315951), (316550, 316601), (317200, 317251), (317850, 317901), (318500, 318551), (319150, 319201), (319800, 319851), (320450, 320501), (321100, 321151), (321750, 321801), (322400, 322451), (323050, 323101), (323700, 323751), (324350, 324401), (325000, 325051), (325650, 325701), (326300, 326352), (326950, 327002), (327600, 327652), (328250, 328302), (328900, 328952), (329550, 329602), (330200, 330252), (330850, 330902), (331500, 331552), (332150, 332202), (332800, 332852), (333450, 333502), (334100, 334152), (334750, 334802), (335400, 335452), (336050, 336102), (336700, 336752), (337350, 337403), (338000, 338053), (338650, 338703), (339300, 339353), (339950, 340003), (340600, 340653), (341250, 341303), (341900, 341953), (342550, 342603), (343200, 343253), (343850, 343903), (344500, 344553), (345150, 345203), (345800, 345853), (346450, 346503), (347100, 347153), (347750, 347803), (348400, 348454), (349050, 349104), (349700, 349754), (350350, 350404), (351000, 351054), (351650, 351704), (352300, 352354), (352950, 353004), (353600, 353654), (354250, 354304), (354900, 354954), (355550, 355604), (356200, 356254), (356850, 356904), (357500, 357554), (358150, 358204), (358800, 358854), (359450, 359505), (360100, 360155), (360750, 360805), (361400, 361455), (362050, 362105), (362700, 362755), (363350, 363405), (364000, 364055), (364650, 364705), (365300, 365355), (365950, 366005), (366600, 366655), (367250, 367305), (367900, 367955), (368550, 368605), (369200, 369255), (369850, 369905), (370500, 370556), (371150, 371206), (371800, 371856), (372450, 372506), (373100, 373156), (373750, 373806), (374400, 374456), (375050, 375106), (375700, 375756), (376350, 376406), (377000, 377056), (377650, 377706), (378300, 378356), (378950, 379006), (379600, 379656), (380250, 380306), (380900, 380957), (381550, 381607), (382200, 382257), (382850, 382907), (383500, 383557), (384150, 384207), (384800, 384857), (385450, 385507), (386100, 386157), (386750, 386807), (387400, 387457), (388050, 388107), (388700, 388757), (389350, 389407), (390000, 390042), (390650, 390675), (391300, 391308)],}
-->