<?xml version="1.0" encoding="utf-8" ?>
<svg xmlns="http://www.w3.org/2000/svg" xmlns:ev="http://www.w3.org/2001/xml-events" xmlns:inkscape="http://www.inkscape.org/namespaces/inkscape" xmlns:sodipodi="http://sodipodi.sourceforge.net/DTD/sodipodi-0.dtd" xmlns:xlink="http://www.w3.org/1999/xlink" baseProfile="full" height="325.0mm" id="svg" version="1.1" viewBox="0 0 325.0 325.0" width="325.0mm">
  <defs/>
  <style type="text/css"><![CDATA[@import url(../prj.css);]]></style>
  <g inkscape:groupmode="layer" inkscape:label="prj"/>
  <g class="cut kitchen_plan" inkscape:groupmode="layer" inkscape:label="cut">
    <g class="Scene_Collection HouseA cut room_window0_frame_002 room_window0_frame_002_cut__kitchen_plan kitchen_plan" id="room_window0_frame_002_cut__kitchen_plan">
      <path class="Scene_Collection HouseA cut room_window0_frame_002 room_window0_frame_002_cut__kitchen_plan kitchen_plan" d="M 298.4632,77.31685 297.76434,77.35838 297.88739,79.42784 297.98395,81.05144 298.6828,81.01025 299.88058,80.93868 299.78412,79.31471 298.58624,79.38626 Z "/>
    </g>
  </g>
  <g inkscape:groupmode="layer" inkscape:label="xray"/>
  <g inkscape:groupmode="layer" inkscape:label="hid"/>
  <g inkscape:groupmode="layer" inkscape:label="sym"/>
  <g inkscape:groupmode="layer" inkscape:label="bak"/>
</svg>
<!--
{"subject": "room_window0_frame_002",
"original_name": "ROOM_window0_frame.002",
"resolution": [325, 325],
"force": "False",
"outline": "False",
"hidden": "False",
"back": "False",
"symbol": "False",
"overlaps": [("hallway_floor_001", "None"),("slaba_001", "None"),],
"render_pixels": [(101346, 101346), (101996, 101996), (102646, 102646), (103296, 103296), (103946, 103949), (104596, 104599), (105246, 105249)],}
-->