<?xml version="1.0" encoding="utf-8" ?>
<svg xmlns="http://www.w3.org/2000/svg" xmlns:ev="http://www.w3.org/2001/xml-events" xmlns:inkscape="http://www.inkscape.org/namespaces/inkscape" xmlns:sodipodi="http://sodipodi.sourceforge.net/DTD/sodipodi-0.dtd" xmlns:xlink="http://www.w3.org/1999/xlink" baseProfile="full" height="325.0mm" id="svg" version="1.1" viewBox="0 0 325.0 325.0" width="325.0mm">
  <defs/>
  <style type="text/css"><![CDATA[@import url(../prj.css);]]></style>
  <g inkscape:groupmode="layer" inkscape:label="prj"/>
  <g class="cut kitchen_plan" inkscape:groupmode="layer" inkscape:label="cut">
    <g class="Scene_Collection HouseA cut KTC_A107_Doors_window vert_016_cut__kitchen_plan KTC_A107 vert_016 kitchen_plan" id="vert_016_cut__kitchen_plan">
      <path class="Scene_Collection HouseA cut KTC_A107_Doors_window vert_016_cut__kitchen_plan KTC_A107 vert_016 kitchen_plan" d="M 116.51939,294.29627 121.0115,294.02924 121.02932,294.32871 116.5373,294.59576 Z  M 246.2404,286.58441 246.25822,286.88391 250.75024,286.61685 250.7325,286.31735 Z "/>
    </g>
  </g>
  <g inkscape:groupmode="layer" inkscape:label="xray"/>
  <g inkscape:groupmode="layer" inkscape:label="hid"/>
  <g inkscape:groupmode="layer" inkscape:label="sym"/>
  <g inkscape:groupmode="layer" inkscape:label="bak"/>
</svg>
<!--
{"subject": "vert_016",
"original_name": "Vert.016",
"resolution": [325, 325],
"force": "False",
"outline": "False",
"hidden": "False",
"back": "False",
"symbol": "False",
"overlaps": [("kitchen_floor", "None"),("slaba_001", "None"),],
"render_pixels": [(372942, 372946), (382435, 382441)],}
-->