<?xml version="1.0" encoding="utf-8" ?>
<svg xmlns="http://www.w3.org/2000/svg" xmlns:ev="http://www.w3.org/2001/xml-events" xmlns:inkscape="http://www.inkscape.org/namespaces/inkscape" xmlns:sodipodi="http://sodipodi.sourceforge.net/DTD/sodipodi-0.dtd" xmlns:xlink="http://www.w3.org/1999/xlink" baseProfile="full" height="325.0mm" id="svg" version="1.1" viewBox="0 0 325.0 325.0" width="325.0mm">
  <defs/>
  <style type="text/css"><![CDATA[@import url(../prj.css);]]></style>
  <g class="prj kitchen_plan" inkscape:groupmode="layer" inkscape:label="prj">
    <g class="Scene_Collection HouseA KTC_A107_Doors_window window_drain_box_001 window_drain_box_001_prj__kitchen_plan KTC_A107 prj kitchen_plan" id="window_drain_box_001_prj__kitchen_plan">
      <path class="Scene_Collection HouseA KTC_A107_Doors_window window_drain_box_001 window_drain_box_001_prj__kitchen_plan KTC_A107 prj kitchen_plan" d="M 117.95149,302.37555 118.05533,304.12247 118.70412,304.08389 "/>
      <path class="Scene_Collection HouseA KTC_A107_Doors_window window_drain_box_001 window_drain_box_001_prj__kitchen_plan KTC_A107 prj kitchen_plan" d="M 121.59899,303.9118 249.72286,296.29486 "/>
      <path class="Scene_Collection HouseA KTC_A107_Doors_window window_drain_box_001 window_drain_box_001_prj__kitchen_plan KTC_A107 prj kitchen_plan" d="M 117.95149,302.37555 117.58948,296.28629 "/>
      <path class="Scene_Collection HouseA KTC_A107_Doors_window window_drain_box_001 window_drain_box_001_prj__kitchen_plan KTC_A107 prj kitchen_plan" d="M 117.48557,294.53937 117.58948,296.28629 "/>
    </g>
  </g>
  <g inkscape:groupmode="layer" inkscape:label="cut"/>
  <g inkscape:groupmode="layer" inkscape:label="xray"/>
  <g inkscape:groupmode="layer" inkscape:label="hid"/>
  <g inkscape:groupmode="layer" inkscape:label="sym"/>
  <g inkscape:groupmode="layer" inkscape:label="bak"/>
</svg>
<!--
{"subject": "window_drain_box_001",
"original_name": "Window_drain_box.001",
"resolution": [325, 325],
"force": "False",
"outline": "False",
"hidden": "False",
"back": "False",
"symbol": "False",
"overlaps": [("slaba_001", "None"),("window_counterframe", "None"),("window_frame_026", "None"),("window_frame_007", "None"),("window_glass_018", "None"),("room_window_glass_067", "None"),("insect_screen_frame_042", "None"),],
"render_pixels": [(372947, 372949), (373580, 373599), (374213, 374249), (374847, 374899), (375480, 375549), (376113, 376199), (376746, 376849), (377379, 377499), (378012, 378149), (378646, 378799), (379279, 379449), (379912, 380099), (380545, 380749), (381178, 381399), (381812, 382049), (382445, 382699), (383085, 383349), (383735, 383999), (384385, 384649), (385035, 385299), (385685, 385933), (386335, 386566), (386985, 387199), (387635, 387833), (388285, 388466), (388936, 389099), (389586, 389732), (390236, 390365), (390886, 390999), (391536, 391632), (392186, 392265), (392836, 392898), (393486, 393531), (394136, 394164), (394786, 394798)],}
-->