<?xml version="1.0" encoding="utf-8" ?>
<svg xmlns="http://www.w3.org/2000/svg" xmlns:ev="http://www.w3.org/2001/xml-events" xmlns:inkscape="http://www.inkscape.org/namespaces/inkscape" xmlns:sodipodi="http://sodipodi.sourceforge.net/DTD/sodipodi-0.dtd" xmlns:xlink="http://www.w3.org/1999/xlink" baseProfile="full" height="325.0mm" id="svg" version="1.1" viewBox="0 0 325.0 325.0" width="325.0mm">
  <defs/>
  <style type="text/css"><![CDATA[@import url(../prj.css);]]></style>
  <g class="kitchen_cut prj" inkscape:groupmode="layer" inkscape:label="prj">
    <g class="Scene_Collection KTC_107_Furniture HouseA ktc_top_016_prj__kitchen_cut KTC_A107 kitchen_cut ktc_top_016 prj" id="ktc_top_016_prj__kitchen_cut">
      <path class="Scene_Collection KTC_107_Furniture HouseA ktc_top_016_prj__kitchen_cut KTC_A107 kitchen_cut ktc_top_016 prj" d="M 150.24532,176.62503 178.7453,176.62505 178.7453,175.87505 "/>
      <path class="Scene_Collection KTC_107_Furniture HouseA ktc_top_016_prj__kitchen_cut KTC_A107 kitchen_cut ktc_top_016 prj" d="M 150.24532,175.37505 150.24535,175.87505 178.74536,175.87505 178.74536,174.72463 178.74538,136.87503 150.24535,136.87503 "/>
      <path class="Scene_Collection KTC_107_Furniture HouseA ktc_top_016_prj__kitchen_cut KTC_A107 kitchen_cut ktc_top_016 prj" d="M 150.24535,175.87505 150.24535,174.72461 150.24535,136.87503 "/>
      <path class="Scene_Collection KTC_107_Furniture HouseA ktc_top_016_prj__kitchen_cut KTC_A107 kitchen_cut ktc_top_016 prj" d="M 150.24532,176.62503 150.24528,175.37505 "/>
      <path class="Scene_Collection KTC_107_Furniture HouseA ktc_top_016_prj__kitchen_cut KTC_A107 kitchen_cut ktc_top_016 prj" d="M 178.87028,138.00001 178.87028,174.72463 178.87028,175.5 "/>
      <path class="Scene_Collection KTC_107_Furniture HouseA ktc_top_016_prj__kitchen_cut KTC_A107 kitchen_cut ktc_top_016 prj" d="M 178.8703,176.62505 207.3703,176.62505 207.3703,175.87505 "/>
      <path class="Scene_Collection KTC_107_Furniture HouseA ktc_top_016_prj__kitchen_cut KTC_A107 kitchen_cut ktc_top_016 prj" d="M 178.87032,175.37505 178.87035,175.87505 207.37035,175.87505 207.37035,174.72463 207.37036,136.87503 178.87036,136.87503 "/>
      <path class="Scene_Collection KTC_107_Furniture HouseA ktc_top_016_prj__kitchen_cut KTC_A107 kitchen_cut ktc_top_016 prj" d="M 178.87035,175.87505 178.87035,174.72463 178.87036,136.87503 "/>
      <path class="Scene_Collection KTC_107_Furniture HouseA ktc_top_016_prj__kitchen_cut KTC_A107 kitchen_cut ktc_top_016 prj" d="M 178.8703,176.62505 178.8703,175.37505 "/>
    </g>
  </g>
  <g inkscape:groupmode="layer" inkscape:label="cut"/>
  <g inkscape:groupmode="layer" inkscape:label="xray"/>
  <g inkscape:groupmode="layer" inkscape:label="hid"/>
  <g inkscape:groupmode="layer" inkscape:label="sym"/>
  <g inkscape:groupmode="layer" inkscape:label="bak"/>
</svg>
<!--
{"subject": "ktc_top_016",
"original_name": "KTC_top.016",
"resolution": [325, 325],
"force": "False",
"outline": "False",
"hidden": "False",
"back": "False",
"symbol": "False",
"overlaps": [("wall", "None"),("ktc_top_010", "None"),("wall_cover", "None"),],
"render_pixels": [(713001, 713228), (714301, 714528), (715601, 715828), (716901, 717128), (718201, 718428), (719501, 719728), (720801, 721028), (722101, 722328), (723401, 723628), (724701, 724928), (726001, 726228), (727301, 727528), (728601, 728828), (729901, 730128), (731201, 731428), (732501, 732728), (733801, 734028), (735101, 735328), (736401, 736628), (737701, 737928), (739001, 739228), (740301, 740528), (741601, 741828), (742901, 743128), (744201, 744428), (745501, 745728), (746801, 747028), (748101, 748328), (749401, 749628), (750701, 750928), (752001, 752228), (753301, 753528), (754601, 754828), (755901, 756128), (757201, 757428), (758501, 758728), (759801, 760028), (761101, 761328), (762401, 762628), (763701, 763928), (765001, 765228), (766301, 766528), (767601, 767828), (768901, 769128), (770201, 770428), (771501, 771728), (772801, 773028), (774101, 774328), (775401, 775628), (776701, 776928), (778001, 778228), (779301, 779528), (780601, 780828), (781901, 782128), (783201, 783428), (784501, 784728), (785801, 786028), (787101, 787328), (788401, 788628), (789701, 789928), (791001, 791228), (792301, 792528), (793601, 793828), (794901, 795128), (796201, 796428), (797501, 797728), (798801, 799028), (800101, 800328), (801401, 801628), (802701, 802928), (804001, 804228), (805301, 805528), (806601, 806828), (807901, 808128), (809201, 809428), (810501, 810728), (811801, 812028), (813101, 813328), (814401, 814628), (815701, 815928), (817001, 817228), (818301, 818528), (819601, 819828), (820901, 821128), (822201, 822428), (823501, 823728), (824801, 825028), (826101, 826328), (827401, 827628), (828701, 828928), (830001, 830228), (831301, 831528), (832601, 832828), (833901, 834128), (835201, 835428), (836501, 836728), (837801, 838028), (839101, 839328), (840401, 840628), (841701, 841928), (843001, 843228), (844301, 844528), (845601, 845828), (846901, 847128), (848201, 848428), (849501, 849728), (850801, 851028), (852101, 852328), (853401, 853628), (854701, 854928), (856001, 856228), (857301, 857528), (858601, 858828), (859901, 860128), (861201, 861428), (862501, 862728), (863801, 864028), (865101, 865328), (866401, 866628), (867701, 867928), (869001, 869228), (870301, 870528), (871601, 871828), (872901, 873128), (874201, 874428), (875501, 875728), (876801, 877028), (878101, 878328), (879401, 879628), (880701, 880928), (882001, 882228), (883301, 883528), (884601, 884828), (885901, 886128), (887201, 887428), (888501, 888728), (889801, 890028), (891101, 891328), (892401, 892628), (893701, 893928), (895001, 895228), (896301, 896528), (897601, 897828), (898901, 899128), (900201, 900428), (901501, 901728), (902801, 903028), (904101, 904328), (905401, 905628), (906701, 906928), (908001, 908228), (909301, 909528), (910601, 910828), (911901, 912128), (913201, 913428), (914501, 914728), (915801, 916028), (917101, 917328)],}
-->