<?xml version="1.0" encoding="utf-8" ?>
<svg xmlns="http://www.w3.org/2000/svg" xmlns:ev="http://www.w3.org/2001/xml-events" xmlns:inkscape="http://www.inkscape.org/namespaces/inkscape" xmlns:sodipodi="http://sodipodi.sourceforge.net/DTD/sodipodi-0.dtd" xmlns:xlink="http://www.w3.org/1999/xlink" baseProfile="full" height="325.0mm" id="svg" version="1.1" viewBox="0 0 325.0 325.0" width="325.0mm">
  <defs/>
  <style type="text/css"><![CDATA[@import url(../prj.css);]]></style>
  <g class="kitchen_cut prj" inkscape:groupmode="layer" inkscape:label="prj">
    <g class="Scene_Collection KTC_A107_Electrical plate3_prj__kitchen_cut HouseA plate3 KTC_A107 kitchen_cut prj" id="plate3_prj__kitchen_cut">
      <path class="Scene_Collection KTC_A107_Electrical plate3_prj__kitchen_cut HouseA plate3 KTC_A107 kitchen_cut prj" d="M 210.23714,185.40001 204.74414,185.40001 "/>
      <path class="Scene_Collection KTC_A107_Electrical plate3_prj__kitchen_cut HouseA plate3 KTC_A107 kitchen_cut prj" d="M 204.74417,189.60001 209.97273,189.60002 "/>
      <path class="Scene_Collection KTC_A107_Electrical plate3_prj__kitchen_cut HouseA plate3 KTC_A107 kitchen_cut prj" d="M 204.74417,189.60001 204.74417,185.40001 "/>
    </g>
  </g>
  <g inkscape:groupmode="layer" inkscape:label="cut"/>
  <g inkscape:groupmode="layer" inkscape:label="xray"/>
  <g inkscape:groupmode="layer" inkscape:label="hid"/>
  <g inkscape:groupmode="layer" inkscape:label="sym"/>
  <g inkscape:groupmode="layer" inkscape:label="bak"/>
</svg>
<!--
{"subject": "plate3",
"original_name": "Plate3",
"resolution": [325, 325],
"force": "False",
"outline": "False",
"hidden": "False",
"back": "False",
"symbol": "False",
"overlaps": [("wall", "None"),("wall_cover", "None"),("quadro_mixer_ktc_367", "None"),("quadro_mixer_ktc_367_holder", "None"),],
"render_pixels": [(965419, 965442), (966719, 966742), (968019, 968042), (969319, 969342), (970619, 970642), (971919, 971942), (973219, 973242), (974519, 974542), (975819, 975842), (977119, 977142), (978419, 978442), (979719, 979742), (981019, 981042), (982319, 982342), (983619, 983642), (984919, 984942)],}
-->