<?xml version="1.0" encoding="utf-8" ?>
<svg xmlns="http://www.w3.org/2000/svg" xmlns:ev="http://www.w3.org/2001/xml-events" xmlns:inkscape="http://www.inkscape.org/namespaces/inkscape" xmlns:sodipodi="http://sodipodi.sourceforge.net/DTD/sodipodi-0.dtd" xmlns:xlink="http://www.w3.org/1999/xlink" baseProfile="full" height="325.0mm" id="svg" version="1.1" viewBox="0 0 325.0 325.0" width="325.0mm">
  <defs/>
  <style type="text/css"><![CDATA[@import url(../prj.css);]]></style>
  <g class="kitchen_cut prj" inkscape:groupmode="layer" inkscape:label="prj">
    <g class="Scene_Collection HouseA KTC_A107_Doors_window window_counterframe_prj__kitchen_cut window_counterframe KTC_A107 kitchen_cut prj" id="window_counterframe_prj__kitchen_cut">
      <path class="Scene_Collection HouseA KTC_A107_Doors_window window_counterframe_prj__kitchen_cut window_counterframe KTC_A107 kitchen_cut prj" d="M 29.39923,242.5 29.39923,242.34999 "/>
      <path class="Scene_Collection HouseA KTC_A107_Doors_window window_counterframe_prj__kitchen_cut window_counterframe KTC_A107 kitchen_cut prj" d="M 29.39925,120.14999 29.39925,119.74998 28.64916,119.74998 24.55562,119.74998 "/>
      <path class="Scene_Collection HouseA KTC_A107_Doors_window window_counterframe_prj__kitchen_cut window_counterframe KTC_A107 kitchen_cut prj" d="M 33.35565,120.49998 33.34922,120.49998 33.74924,120.49998 33.74922,242.5 "/>
      <path class="Scene_Collection HouseA KTC_A107_Doors_window window_counterframe_prj__kitchen_cut window_counterframe KTC_A107 kitchen_cut prj" d="M 29.39921,242.5 29.39921,242.34999 "/>
      <path class="Scene_Collection HouseA KTC_A107_Doors_window window_counterframe_prj__kitchen_cut window_counterframe KTC_A107 kitchen_cut prj" d="M 29.39923,120.14999 29.39923,119.74998 33.34922,119.74998 33.35565,119.74998 "/>
      <path class="Scene_Collection HouseA KTC_A107_Doors_window window_counterframe_prj__kitchen_cut window_counterframe KTC_A107 kitchen_cut prj" d="M 24.15284,120.49998 24.20269,120.49998 "/>
      <path class="Scene_Collection HouseA KTC_A107_Doors_window window_counterframe_prj__kitchen_cut window_counterframe KTC_A107 kitchen_cut prj" d="M 28.64922,242.5 28.64922,242.34999 "/>
      <path class="Scene_Collection HouseA KTC_A107_Doors_window window_counterframe_prj__kitchen_cut window_counterframe KTC_A107 kitchen_cut prj" d="M 28.64926,120.14999 28.64926,119.74998 "/>
      <path class="Scene_Collection HouseA KTC_A107_Doors_window window_counterframe_prj__kitchen_cut window_counterframe KTC_A107 kitchen_cut prj" d="M 28.64915,242.5 28.64915,242.34999 "/>
      <path class="Scene_Collection HouseA KTC_A107_Doors_window window_counterframe_prj__kitchen_cut window_counterframe KTC_A107 kitchen_cut prj" d="M 28.64916,120.14999 28.64916,119.74998 "/>
      <path class="Scene_Collection HouseA KTC_A107_Doors_window window_counterframe_prj__kitchen_cut window_counterframe KTC_A107 kitchen_cut prj" d="M 32.53145,116.95001 29.39923,116.95001 "/>
      <path class="Scene_Collection HouseA KTC_A107_Doors_window window_counterframe_prj__kitchen_cut window_counterframe KTC_A107 kitchen_cut prj" d="M 33.35698,120.49998 33.35698,119.74998 "/>
      <path class="Scene_Collection HouseA KTC_A107_Doors_window window_counterframe_prj__kitchen_cut window_counterframe KTC_A107 kitchen_cut prj" d="M 33.34922,120.49998 33.34922,119.74998 "/>
    </g>
  </g>
  <g class="kitchen_cut cut" inkscape:groupmode="layer" inkscape:label="cut">
    <g class="Scene_Collection HouseA cut KTC_A107_Doors_window window_counterframe KTC_A107 kitchen_cut window_counterframe_cut__kitchen_cut" id="window_counterframe_cut__kitchen_cut">
      <path class="Scene_Collection HouseA cut KTC_A107_Doors_window window_counterframe KTC_A107 kitchen_cut window_counterframe_cut__kitchen_cut" d="M 24.55556,243.54999 29.40556,243.54999 33.75559,243.54999 33.75559,242.5 33.35557,242.5 29.40556,242.5 28.65558,242.5 24.55556,242.5 24.15557,242.5 24.15557,243.54492 24.15557,243.54999 24.55556,243.54999 25.9056,243.54999 28.65558,243.54999 29.40556,243.54999  M 24.55556,242.5 29.40556,242.5 33.75559,242.5  M 24.5556,119.74998 33.35559,119.74998 33.35559,119.88078 33.35559,119.8844 33.35559,120.49998 33.75561,120.49998 33.75561,116.94998 29.4056,116.95001 29.0155,116.94998 28.65562,116.94998 24.72087,116.94998 24.5556,116.94998 24.15561,116.94998 24.15561,119.86368 24.15561,120.48283 24.15563,120.49998 24.5556,120.49998 24.5556,119.74998 28.65562,119.74998 29.4056,119.74998 33.35559,119.74998 "/>
    </g>
  </g>
  <g inkscape:groupmode="layer" inkscape:label="xray"/>
  <g inkscape:groupmode="layer" inkscape:label="hid"/>
  <g inkscape:groupmode="layer" inkscape:label="sym"/>
  <g inkscape:groupmode="layer" inkscape:label="bak"/>
</svg>
<!--
{"subject": "window_counterframe",
"original_name": "Window_counterframe",
"resolution": [325, 325],
"force": "False",
"outline": "False",
"hidden": "False",
"back": "False",
"symbol": "False",
"overlaps": [("wall", "None"),("window_frame_007", "None"),("window_frame_026", "None"),("insect_screen_frame_042", "None"),("room_window_glass_067", "None"),],
"render_pixels": [(608497, 608534), (609797, 609834), (611097, 611134), (612397, 612434), (613697, 613734), (614997, 615034), (616297, 616334), (617597, 617634), (618897, 618934), (620197, 620234), (621497, 621534), (622797, 622834), (624097, 624134), (625397, 625434), (626697, 626734), (627997, 628034), (629297, 629334), (630597, 630634), (631897, 631934), (633197, 633234), (634497, 634534), (635797, 635834), (637097, 637134), (638397, 638434), (639697, 639734), (640997, 641034), (642297, 642334), (643597, 643634), (644897, 644934), (646197, 646234), (647497, 647534), (648797, 648834), (650097, 650134), (651397, 651434), (652697, 652734), (653997, 654034), (655297, 655334), (656597, 656634), (657897, 657934), (659197, 659234), (660497, 660534), (661797, 661834), (663097, 663134), (664397, 664434), (665697, 665734), (666997, 667034), (668297, 668334), (669597, 669634), (670897, 670934), (672197, 672234), (673497, 673534), (674797, 674834), (676097, 676134), (677397, 677434), (678697, 678734), (679997, 680034), (681297, 681334), (682597, 682634), (683897, 683934), (685197, 685234), (686497, 686534), (687797, 687834), (689097, 689134), (690397, 690434), (691697, 691734), (692997, 693034), (694297, 694334), (695597, 695634), (696897, 696934), (698197, 698234), (699497, 699534), (700797, 700834), (702097, 702134), (703397, 703434), (704697, 704734), (705997, 706034), (707297, 707334), (708597, 708634), (709897, 709934), (711197, 711234), (712497, 712534), (713797, 713834), (715097, 715134), (716397, 716434), (717697, 717734), (718997, 719034), (720297, 720334), (721597, 721634), (722897, 722934), (724197, 724234), (725497, 725534), (726797, 726834), (728097, 728134), (729397, 729434), (730697, 730734), (731997, 732034), (733297, 733334), (734597, 734634), (735897, 735934), (737197, 737234), (738497, 738534), (739797, 739834), (741097, 741134), (742397, 742434), (743697, 743734), (744997, 745034), (746297, 746334), (747597, 747634), (748897, 748934), (750197, 750234), (751497, 751534), (752797, 752834), (754097, 754134), (755397, 755434), (756697, 756734), (757997, 758034), (759297, 759334), (760597, 760634), (761897, 761934), (763197, 763234), (764497, 764534), (765797, 765834), (767097, 767134), (768397, 768434), (769697, 769734), (770997, 771034), (772297, 772334), (773597, 773634), (774897, 774934), (776197, 776234), (777497, 777534), (778797, 778834), (780097, 780134), (781397, 781434), (782697, 782734), (783997, 784034), (785297, 785334), (786597, 786634), (787897, 787934), (789197, 789234), (790497, 790534), (791797, 791834), (793097, 793134), (794397, 794434), (795697, 795734), (796997, 797034), (798297, 798334), (799597, 799634), (800897, 800934), (802197, 802234), (803497, 803534), (804797, 804834), (806097, 806134), (807397, 807434), (808697, 808734), (809997, 810034), (811297, 811334), (812597, 812634), (813897, 813934), (815197, 815234), (816497, 816534), (817797, 817834), (819097, 819134), (820397, 820434), (821697, 821734), (822997, 823034), (824297, 824334), (825597, 825634), (826897, 826934), (828197, 828234), (829497, 829534), (830797, 830834), (832097, 832134), (833397, 833434), (834697, 834734), (835997, 836034), (837297, 837334), (838597, 838634), (839897, 839934), (841197, 841234), (842497, 842534), (843797, 843834), (845097, 845134), (846397, 846434), (847697, 847734), (848997, 849034), (850297, 850334), (851597, 851634), (852897, 852934), (854197, 854234), (855497, 855534), (856797, 856834), (858097, 858134), (859397, 859434), (860697, 860734), (861997, 862034), (863297, 863334), (864597, 864634), (865897, 865934), (867197, 867234), (868497, 868534), (869797, 869834), (871097, 871134), (872397, 872434), (873697, 873734), (874997, 875034), (876297, 876334), (877597, 877634), (878897, 878934), (880197, 880234), (881497, 881534), (882797, 882834), (884097, 884134), (885397, 885434), (886697, 886734), (887997, 888034), (889297, 889334), (890597, 890634), (891897, 891934), (893197, 893234), (894497, 894534), (895797, 895834), (897097, 897134), (898397, 898434), (899697, 899734), (900997, 901034), (902297, 902334), (903597, 903634), (904897, 904934), (906197, 906234), (907497, 907534), (908797, 908834), (910097, 910134), (911397, 911434), (912697, 912734), (913997, 914034), (915297, 915334), (916597, 916634), (917897, 917934), (919197, 919234), (920497, 920534), (921797, 921834), (923097, 923134), (924397, 924434), (925697, 925734), (926997, 927034), (928297, 928334), (929597, 929634), (930897, 930934), (932197, 932234), (933497, 933534), (934797, 934834), (936097, 936134), (937397, 937434), (938697, 938734), (939997, 940034), (941297, 941334), (942597, 942634), (943897, 943934), (945197, 945234), (946497, 946534), (947797, 947834), (949097, 949134), (950397, 950434), (951697, 951734), (952997, 953034), (954297, 954334), (955597, 955634), (956897, 956934), (958197, 958234), (959497, 959534), (960797, 960834), (962097, 962134), (963397, 963434), (964697, 964734), (965997, 966034), (967297, 967334), (968597, 968634), (969897, 969934), (971197, 971234), (972497, 972534), (973797, 973834), (975097, 975134), (976397, 976434), (977697, 977734), (978997, 979034), (980297, 980334), (981597, 981634), (982897, 982934), (984197, 984234), (985497, 985534), (986797, 986834), (988097, 988134), (989397, 989434), (990697, 990734), (991997, 992034), (993297, 993334), (994597, 994634), (995897, 995934), (997197, 997234), (998497, 998534), (999797, 999834), (1001097, 1001134), (1002397, 1002434), (1003697, 1003734), (1004997, 1005034), (1006297, 1006334), (1007597, 1007634), (1008897, 1008934), (1010197, 1010234), (1011497, 1011534), (1012797, 1012834), (1014097, 1014134), (1015397, 1015434), (1016697, 1016734), (1017997, 1018034), (1019297, 1019334), (1020597, 1020634), (1021897, 1021934), (1023197, 1023234), (1024497, 1024534), (1025797, 1025834), (1027097, 1027134), (1028397, 1028434), (1029697, 1029734), (1030997, 1031034), (1032297, 1032334), (1033597, 1033634), (1034897, 1034934), (1036197, 1036234), (1037497, 1037534), (1038797, 1038834), (1040097, 1040134), (1041397, 1041434), (1042697, 1042734), (1043997, 1044034), (1045297, 1045334), (1046597, 1046634), (1047897, 1047934), (1049197, 1049234), (1050497, 1050534), (1051797, 1051834), (1053097, 1053134), (1054397, 1054434), (1055697, 1055734), (1056997, 1057034), (1058297, 1058334), (1059597, 1059634), (1060897, 1060934), (1062197, 1062234), (1063497, 1063534), (1064797, 1064834), (1066097, 1066134), (1067397, 1067434), (1068697, 1068734), (1069997, 1070034), (1071297, 1071334), (1072597, 1072634), (1073897, 1073934), (1075197, 1075234), (1076497, 1076534), (1077797, 1077834), (1079097, 1079134), (1080397, 1080434), (1081697, 1081734), (1082997, 1083034), (1084297, 1084334), (1085597, 1085634), (1086897, 1086934), (1088197, 1088234), (1089497, 1089534), (1090797, 1090834), (1092097, 1092134), (1093397, 1093434), (1094697, 1094734), (1095997, 1096034), (1097297, 1097334), (1098597, 1098634), (1099897, 1099934), (1101197, 1101234), (1102497, 1102534), (1103797, 1103834), (1105097, 1105134), (1106397, 1106434), (1107697, 1107734), (1108997, 1109034), (1110297, 1110334), (1111597, 1111634), (1112897, 1112934), (1114197, 1114234), (1115497, 1115534), (1116797, 1116834), (1118097, 1118134), (1119397, 1119434), (1120697, 1120734), (1121997, 1122034), (1123297, 1123334), (1124597, 1124634), (1125897, 1125934), (1127197, 1127234), (1128497, 1128534), (1129797, 1129834), (1131097, 1131134), (1132397, 1132434), (1133697, 1133734), (1134997, 1135034), (1136297, 1136334), (1137597, 1137634), (1138897, 1138934), (1140197, 1140234), (1141497, 1141534), (1142797, 1142834), (1144097, 1144134), (1145397, 1145434), (1146697, 1146734), (1147997, 1148034), (1149297, 1149334), (1150597, 1150634), (1151897, 1151934), (1153197, 1153234), (1154497, 1154534), (1155797, 1155834), (1157097, 1157134), (1158397, 1158434), (1159697, 1159734), (1160997, 1161034), (1162297, 1162334), (1163597, 1163634), (1164897, 1164934), (1166197, 1166234), (1167497, 1167534), (1168797, 1168834), (1170097, 1170134), (1171397, 1171434), (1172697, 1172734), (1173997, 1174034), (1175297, 1175334), (1176597, 1176634), (1177897, 1177934), (1179197, 1179234), (1180497, 1180534), (1181797, 1181834), (1183097, 1183134), (1184397, 1184434), (1185697, 1185734), (1186997, 1187034), (1188297, 1188334), (1189597, 1189634), (1190897, 1190934), (1192197, 1192234), (1193497, 1193534), (1194797, 1194834), (1196097, 1196134), (1197397, 1197434), (1198697, 1198734), (1199997, 1200034), (1201297, 1201334), (1202597, 1202634), (1203897, 1203934), (1205197, 1205234), (1206497, 1206534), (1207797, 1207834), (1209097, 1209134), (1210397, 1210434), (1211697, 1211734), (1212997, 1213034), (1214297, 1214334), (1215597, 1215634), (1216897, 1216934), (1218197, 1218234), (1219497, 1219534), (1220797, 1220834), (1222097, 1222134), (1223397, 1223434), (1224697, 1224734), (1225997, 1226034), (1227297, 1227334), (1228597, 1228634), (1229897, 1229934), (1231197, 1231234), (1232497, 1232534), (1233797, 1233834), (1235097, 1235134), (1236397, 1236434), (1237697, 1237734), (1238997, 1239034), (1240297, 1240334), (1241597, 1241634), (1242897, 1242934), (1244197, 1244234), (1245497, 1245534), (1246797, 1246834), (1248097, 1248134), (1249397, 1249434), (1250697, 1250734), (1251997, 1252034), (1253297, 1253334), (1254597, 1254634), (1255897, 1255934), (1257197, 1257234), (1258497, 1258534), (1259797, 1259834), (1261097, 1261134), (1262397, 1262434), (1263697, 1263734), (1264997, 1265034)],}
-->