<?xml version="1.0" encoding="UTF-8" standalone="no"?>
<!-- Created with Inkscape (http://www.inkscape.org/) -->

<svg
   width="594mm"
   height="841mm"
   viewBox="0 0 594 841"
   version="1.1"
   id="svg112801"
   inkscape:version="1.1.1 (1:1.1+202109281949+c3084ef5ed)"
   sodipodi:docname="A1_Portrait.svg"
   xmlns:inkscape="http://www.inkscape.org/namespaces/inkscape"
   xmlns:sodipodi="http://sodipodi.sourceforge.net/DTD/sodipodi-0.dtd"
   xmlns="http://www.w3.org/2000/svg"
   xmlns:svg="http://www.w3.org/2000/svg">
  <sodipodi:namedview
     id="namedview112803"
     pagecolor="#ffffff"
     bordercolor="#666666"
     borderopacity="1.0"
     inkscape:pageshadow="2"
     inkscape:pageopacity="0.0"
     inkscape:pagecheckerboard="0"
     inkscape:document-units="mm"
     showgrid="false"
     inkscape:zoom="0.11322959"
     inkscape:cx="498.98617"
     inkscape:cy="1598.5221"
     inkscape:window-width="1920"
     inkscape:window-height="1053"
     inkscape:window-x="0"
     inkscape:window-y="258"
     inkscape:window-maximized="1"
     inkscape:current-layer="g113815"
     showguides="true"
     inkscape:guide-bbox="true" />
  <defs
     id="defs112798" />
  <g
     inkscape:label="GRID_FRAME"
     inkscape:groupmode="layer"
     id="layer1">
    <g
       id="g113815"
       transform="translate(-180.51321,-137.80807)">
      <text
         style="font-variant:normal;font-weight:normal;font-stretch:normal;font-size:2.5146px;font-family:Arial;-inkscape-font-specification:ArialMT;writing-mode:lr-tb;display:inline;fill:#000000;fill-opacity:1;fill-rule:nonzero;stroke:none;stroke-width:0.0846667"
         id="text88306"
         x="564.81384"
         y="971.77753"><tspan
           x="564.81384"
           y="971.77753"
           id="tspan88304"
           style="stroke:none;stroke-width:0.0846667">8</tspan></text>
      <text
         style="font-variant:normal;font-weight:normal;font-stretch:normal;font-size:2.5146px;font-family:Arial;-inkscape-font-specification:ArialMT;writing-mode:lr-tb;display:inline;fill:#000000;fill-opacity:1;fill-rule:nonzero;stroke:none;stroke-width:0.0846667"
         id="text88318"
         x="564.81378"
         y="146.63701"><tspan
           x="564.81378"
           y="146.63701"
           id="tspan88316"
           style="stroke:none;stroke-width:0.0846667">8</tspan></text>
      <text
         style="font-variant:normal;font-weight:normal;font-stretch:normal;font-size:2.5146px;font-family:Arial;-inkscape-font-specification:ArialMT;writing-mode:lr-tb;display:inline;fill:#000000;fill-opacity:1;fill-rule:nonzero;stroke:none;stroke-width:0.0846667"
         id="text88322"
         x="514.81384"
         y="971.77753"><tspan
           x="514.81384"
           y="971.77753"
           id="tspan88320"
           style="stroke:none;stroke-width:0.0846667">7</tspan></text>
      <text
         style="font-variant:normal;font-weight:normal;font-stretch:normal;font-size:2.5146px;font-family:Arial;-inkscape-font-specification:ArialMT;writing-mode:lr-tb;display:inline;fill:#000000;fill-opacity:1;fill-rule:nonzero;stroke:none;stroke-width:0.0846667"
         id="text88334"
         x="514.81384"
         y="146.63701"><tspan
           x="514.81384"
           y="146.63701"
           id="tspan88332"
           style="stroke:none;stroke-width:0.0846667">7</tspan></text>
      <text
         style="font-variant:normal;font-weight:normal;font-stretch:normal;font-size:2.5146px;font-family:Arial;-inkscape-font-specification:ArialMT;writing-mode:lr-tb;display:inline;fill:#000000;fill-opacity:1;fill-rule:nonzero;stroke:none;stroke-width:0.0846667"
         id="text88342"
         x="464.81384"
         y="971.77753"><tspan
           x="464.81384"
           y="971.77753"
           id="tspan88340"
           style="stroke:none;stroke-width:0.0846667">6</tspan></text>
      <text
         style="font-variant:normal;font-weight:normal;font-stretch:normal;font-size:2.5146px;font-family:Arial;-inkscape-font-specification:ArialMT;writing-mode:lr-tb;display:inline;fill:#000000;fill-opacity:1;fill-rule:nonzero;stroke:none;stroke-width:0.0846667"
         id="text88350"
         x="464.81384"
         y="146.63701"><tspan
           x="464.81384"
           y="146.63701"
           id="tspan88348"
           style="stroke:none;stroke-width:0.0846667">6</tspan></text>
      <text
         style="font-variant:normal;font-weight:normal;font-stretch:normal;font-size:2.5146px;font-family:Arial;-inkscape-font-specification:ArialMT;writing-mode:lr-tb;display:inline;fill:#000000;fill-opacity:1;fill-rule:nonzero;stroke:none;stroke-width:0.0846667"
         id="text88358"
         x="414.81381"
         y="971.77753"><tspan
           x="414.81381"
           y="971.77753"
           id="tspan88356"
           style="stroke:none;stroke-width:0.0846667">5</tspan></text>
      <text
         style="font-variant:normal;font-weight:normal;font-stretch:normal;font-size:2.5146px;font-family:Arial;-inkscape-font-specification:ArialMT;writing-mode:lr-tb;display:inline;fill:#000000;fill-opacity:1;fill-rule:nonzero;stroke:none;stroke-width:0.0846667"
         id="text88366"
         x="414.81381"
         y="146.63701"><tspan
           x="414.81381"
           y="146.63701"
           id="tspan88364"
           style="stroke:none;stroke-width:0.0846667">5</tspan></text>
      <text
         style="font-variant:normal;font-weight:normal;font-stretch:normal;font-size:2.5146px;font-family:Arial;-inkscape-font-specification:ArialMT;writing-mode:lr-tb;display:inline;fill:#000000;fill-opacity:1;fill-rule:nonzero;stroke:none;stroke-width:0.0846667"
         id="text88370"
         x="364.81384"
         y="971.77753"><tspan
           x="364.81384"
           y="971.77753"
           id="tspan88368"
           style="stroke:none;stroke-width:0.0846667">4</tspan></text>
      <text
         style="font-variant:normal;font-weight:normal;font-stretch:normal;font-size:2.5146px;font-family:Arial;-inkscape-font-specification:ArialMT;writing-mode:lr-tb;display:inline;fill:#000000;fill-opacity:1;fill-rule:nonzero;stroke:none;stroke-width:0.0846667"
         id="text88374"
         x="364.81384"
         y="146.63701"><tspan
           x="364.81384"
           y="146.63701"
           id="tspan88372"
           style="stroke:none;stroke-width:0.0846667">4</tspan></text>
      <text
         style="font-variant:normal;font-weight:normal;font-stretch:normal;font-size:2.5146px;font-family:Arial;-inkscape-font-specification:ArialMT;writing-mode:lr-tb;display:inline;fill:#000000;fill-opacity:1;fill-rule:nonzero;stroke:none;stroke-width:0.0846667"
         id="text88378"
         x="314.81384"
         y="971.77753"><tspan
           x="314.81384"
           y="971.77753"
           id="tspan88376"
           style="stroke:none;stroke-width:0.0846667">3</tspan></text>
      <text
         style="font-variant:normal;font-weight:normal;font-stretch:normal;font-size:2.5146px;font-family:Arial;-inkscape-font-specification:ArialMT;writing-mode:lr-tb;display:inline;fill:#000000;fill-opacity:1;fill-rule:nonzero;stroke:none;stroke-width:0.0846667"
         id="text88382"
         x="314.81384"
         y="146.63701"><tspan
           x="314.81384"
           y="146.63701"
           id="tspan88380"
           style="stroke:none;stroke-width:0.0846667">3</tspan></text>
      <text
         style="font-variant:normal;font-weight:normal;font-stretch:normal;font-size:2.5146px;font-family:Arial;-inkscape-font-specification:ArialMT;writing-mode:lr-tb;display:inline;fill:#000000;fill-opacity:1;fill-rule:nonzero;stroke:none;stroke-width:0.0846667"
         id="text88386"
         x="264.81384"
         y="971.77753"><tspan
           x="264.81384"
           y="971.77753"
           id="tspan88384"
           style="stroke:none;stroke-width:0.0846667">2</tspan></text>
      <text
         style="font-variant:normal;font-weight:normal;font-stretch:normal;font-size:2.5146px;font-family:Arial;-inkscape-font-specification:ArialMT;writing-mode:lr-tb;display:inline;fill:#000000;fill-opacity:1;fill-rule:nonzero;stroke:none;stroke-width:0.0846667"
         id="text88390"
         x="264.81384"
         y="146.63701"><tspan
           x="264.81384"
           y="146.63701"
           id="tspan88388"
           style="stroke:none;stroke-width:0.0846667">2</tspan></text>
      <text
         style="font-variant:normal;font-weight:normal;font-stretch:normal;font-size:2.5146px;font-family:Arial;-inkscape-font-specification:ArialMT;writing-mode:lr-tb;display:inline;fill:#000000;fill-opacity:1;fill-rule:nonzero;stroke:none;stroke-width:0.0846667"
         id="text88394"
         x="216.16301"
         y="971.77753"><tspan
           x="216.16301"
           y="971.77753"
           id="tspan88392"
           style="stroke:none;stroke-width:0.0846667">1</tspan></text>
      <text
         style="font-variant:normal;font-weight:normal;font-stretch:normal;font-size:2.5146px;font-family:Arial;-inkscape-font-specification:ArialMT;writing-mode:lr-tb;display:inline;fill:#000000;fill-opacity:1;fill-rule:nonzero;stroke:none;stroke-width:0.0846667"
         id="text88398"
         x="216.16301"
         y="146.63701"><tspan
           x="216.16301"
           y="146.63701"
           id="tspan88396"
           style="stroke:none;stroke-width:0.0846667">1</tspan></text>
      <text
         style="font-variant:normal;font-weight:normal;font-stretch:normal;font-size:2.5146px;font-family:Arial;-inkscape-font-specification:ArialMT;writing-mode:lr-tb;display:inline;fill:#000000;fill-opacity:1;fill-rule:nonzero;stroke:none;stroke-width:0.0846667"
         id="text88402"
         x="614.81384"
         y="971.77753"><tspan
           x="614.81384"
           y="971.77753"
           id="tspan88400"
           style="stroke:none;stroke-width:0.0846667">9</tspan></text>
      <text
         style="font-variant:normal;font-weight:normal;font-stretch:normal;font-size:2.5146px;font-family:Arial;-inkscape-font-specification:ArialMT;writing-mode:lr-tb;display:inline;fill:#000000;fill-opacity:1;fill-rule:nonzero;stroke:none;stroke-width:0.0846667"
         id="text88406"
         x="614.81378"
         y="146.63701"><tspan
           x="614.81378"
           y="146.63701"
           id="tspan88404"
           style="stroke:none;stroke-width:0.0846667">9</tspan></text>
      <text
         style="font-variant:normal;font-weight:normal;font-stretch:normal;font-size:2.5146px;font-family:Arial;-inkscape-font-specification:ArialMT;writing-mode:lr-tb;display:inline;fill:#000000;fill-opacity:1;fill-rule:nonzero;stroke:none;stroke-width:0.0846667"
         id="text88414"
         x="664.11456"
         y="971.77753"><tspan
           x="664.11456 665.5127"
           y="971.77753"
           sodipodi:role="line"
           id="tspan88412"
           style="stroke:none;stroke-width:0.0846667">10</tspan></text>
      <text
         style="font-variant:normal;font-weight:normal;font-stretch:normal;font-size:2.5146px;font-family:Arial;-inkscape-font-specification:ArialMT;writing-mode:lr-tb;display:inline;fill:#000000;fill-opacity:1;fill-rule:nonzero;stroke:none;stroke-width:0.0846667"
         id="text88418"
         x="664.11456"
         y="146.63701"><tspan
           x="664.11456 665.5127"
           y="146.63701"
           sodipodi:role="line"
           id="tspan88416"
           style="stroke:none;stroke-width:0.0846667">10</tspan></text>
      <text
         style="font-variant:normal;font-weight:normal;font-stretch:normal;font-size:2.5146px;font-family:Arial;-inkscape-font-specification:ArialMT;writing-mode:lr-tb;display:inline;fill:#000000;fill-opacity:1;fill-rule:nonzero;stroke:none;stroke-width:0.0846667"
         id="text88426"
         x="714.11456"
         y="146.63701"><tspan
           x="714.11456 715.5127"
           y="146.63701"
           sodipodi:role="line"
           id="tspan88424"
           style="stroke:none;stroke-width:0.0846667">11</tspan></text>
      <text
         style="font-variant:normal;font-weight:normal;font-stretch:normal;font-size:2.5146px;font-family:Arial;-inkscape-font-specification:ArialMT;writing-mode:lr-tb;display:inline;fill:#000000;fill-opacity:1;fill-rule:nonzero;stroke:none;stroke-width:0.0846667"
         id="text88430"
         x="187.8308"
         y="423.70737"><tspan
           x="187.8308"
           y="423.70737"
           id="tspan88428"
           style="stroke:none;stroke-width:0.0846667">F</tspan></text>
      <text
         style="font-variant:normal;font-weight:normal;font-stretch:normal;font-size:2.5146px;font-family:Arial;-inkscape-font-specification:ArialMT;writing-mode:lr-tb;display:inline;fill:#000000;fill-opacity:1;fill-rule:nonzero;stroke:none;stroke-width:0.0846667"
         id="text88434"
         x="765.65936"
         y="423.7074"><tspan
           x="765.65936"
           y="423.7074"
           id="tspan88432"
           style="stroke:none;stroke-width:0.0846667">F</tspan></text>
      <text
         style="font-variant:normal;font-weight:normal;font-stretch:normal;font-size:2.5146px;font-family:Arial;-inkscape-font-specification:ArialMT;writing-mode:lr-tb;display:inline;fill:#000000;fill-opacity:1;fill-rule:nonzero;stroke:none;stroke-width:0.0846667"
         id="text88438"
         x="187.76019"
         y="373.70737"><tspan
           x="187.76019"
           y="373.70737"
           id="tspan88436"
           style="stroke:none;stroke-width:0.0846667">E</tspan></text>
      <text
         style="font-variant:normal;font-weight:normal;font-stretch:normal;font-size:2.5146px;font-family:Arial;-inkscape-font-specification:ArialMT;writing-mode:lr-tb;display:inline;fill:#000000;fill-opacity:1;fill-rule:nonzero;stroke:none;stroke-width:0.0846667"
         id="text88442"
         x="765.58875"
         y="373.7074"><tspan
           x="765.58875"
           y="373.7074"
           id="tspan88440"
           style="stroke:none;stroke-width:0.0846667">E</tspan></text>
      <text
         style="font-variant:normal;font-weight:normal;font-stretch:normal;font-size:2.5146px;font-family:Arial;-inkscape-font-specification:ArialMT;writing-mode:lr-tb;display:inline;fill:#000000;fill-opacity:1;fill-rule:nonzero;stroke:none;stroke-width:0.0846667"
         id="text88446"
         x="187.69081"
         y="323.70737"><tspan
           x="187.69081"
           y="323.70737"
           id="tspan88444"
           style="stroke:none;stroke-width:0.0846667">D</tspan></text>
      <text
         style="font-variant:normal;font-weight:normal;font-stretch:normal;font-size:2.5146px;font-family:Arial;-inkscape-font-specification:ArialMT;writing-mode:lr-tb;display:inline;fill:#000000;fill-opacity:1;fill-rule:nonzero;stroke:none;stroke-width:0.0846667"
         id="text88450"
         x="765.51947"
         y="323.70737"><tspan
           x="765.51947"
           y="323.70737"
           id="tspan88448"
           style="stroke:none;stroke-width:0.0846667">D</tspan></text>
      <text
         style="font-variant:normal;font-weight:normal;font-stretch:normal;font-size:2.5146px;font-family:Arial;-inkscape-font-specification:ArialMT;writing-mode:lr-tb;display:inline;fill:#000000;fill-opacity:1;fill-rule:nonzero;stroke:none;stroke-width:0.0846667"
         id="text88454"
         x="765.51947"
         y="273.7074"><tspan
           x="765.51947"
           y="273.7074"
           id="tspan88452"
           style="stroke:none;stroke-width:0.0846667">C</tspan></text>
      <text
         style="font-variant:normal;font-weight:normal;font-stretch:normal;font-size:2.5146px;font-family:Arial;-inkscape-font-specification:ArialMT;writing-mode:lr-tb;display:inline;fill:#000000;fill-opacity:1;fill-rule:nonzero;stroke:none;stroke-width:0.0846667"
         id="text88458"
         x="187.69081"
         y="273.7074"><tspan
           x="187.69081"
           y="273.7074"
           id="tspan88456"
           style="stroke:none;stroke-width:0.0846667">C</tspan></text>
      <text
         style="font-variant:normal;font-weight:normal;font-stretch:normal;font-size:2.5146px;font-family:Arial;-inkscape-font-specification:ArialMT;writing-mode:lr-tb;display:inline;fill:#000000;fill-opacity:1;fill-rule:nonzero;stroke:none;stroke-width:0.0846667"
         id="text88462"
         x="765.58875"
         y="223.7074"><tspan
           x="765.58875"
           y="223.7074"
           id="tspan88460"
           style="stroke:none;stroke-width:0.0846667">B</tspan></text>
      <text
         style="font-variant:normal;font-weight:normal;font-stretch:normal;font-size:2.5146px;font-family:Arial;-inkscape-font-specification:ArialMT;writing-mode:lr-tb;display:inline;fill:#000000;fill-opacity:1;fill-rule:nonzero;stroke:none;stroke-width:0.0846667"
         id="text88466"
         x="187.76019"
         y="223.7074"><tspan
           x="187.76019"
           y="223.7074"
           id="tspan88464"
           style="stroke:none;stroke-width:0.0846667">B</tspan></text>
      <text
         style="font-variant:normal;font-weight:normal;font-stretch:normal;font-size:2.5146px;font-family:Arial;-inkscape-font-specification:ArialMT;writing-mode:lr-tb;display:inline;fill:#000000;fill-opacity:1;fill-rule:nonzero;stroke:none;stroke-width:0.0846667"
         id="text88470"
         x="765.59064"
         y="173.70743"><tspan
           x="765.59064"
           y="173.70743"
           id="tspan88468"
           style="stroke:none;stroke-width:0.0846667">A</tspan></text>
      <text
         style="font-variant:normal;font-weight:normal;font-stretch:normal;font-size:2.5146px;font-family:Arial;-inkscape-font-specification:ArialMT;writing-mode:lr-tb;display:inline;fill:#000000;fill-opacity:1;fill-rule:nonzero;stroke:none;stroke-width:0.0846667"
         id="text88474"
         x="187.76204"
         y="173.70743"><tspan
           x="187.76204"
           y="173.70743"
           id="tspan88472"
           style="stroke:none;stroke-width:0.0846667">A</tspan></text>
      <text
         style="font-variant:normal;font-weight:normal;font-stretch:normal;font-size:2.5146px;font-family:Arial;-inkscape-font-specification:ArialMT;writing-mode:lr-tb;display:inline;fill:#000000;fill-opacity:1;fill-rule:nonzero;stroke:none;stroke-width:0.0846667"
         id="text88478"
         x="765.44934"
         y="473.70743"><tspan
           x="765.44934"
           y="473.70743"
           id="tspan88476"
           style="stroke:none;stroke-width:0.0846667">G</tspan></text>
      <text
         style="font-variant:normal;font-weight:normal;font-stretch:normal;font-size:2.5146px;font-family:Arial;-inkscape-font-specification:ArialMT;writing-mode:lr-tb;display:inline;fill:#000000;fill-opacity:1;fill-rule:nonzero;stroke:none;stroke-width:0.0846667"
         id="text88482"
         x="187.62083"
         y="473.70737"><tspan
           x="187.62083"
           y="473.70737"
           id="tspan88480"
           style="stroke:none;stroke-width:0.0846667">G</tspan></text>
      <text
         style="font-variant:normal;font-weight:normal;font-stretch:normal;font-size:2.5146px;font-family:Arial;-inkscape-font-specification:ArialMT;writing-mode:lr-tb;display:inline;fill:#000000;fill-opacity:1;fill-rule:nonzero;stroke:none;stroke-width:0.0846667"
         id="text88486"
         x="765.51947"
         y="523.70734"><tspan
           x="765.51947"
           y="523.70734"
           id="tspan88484"
           style="stroke:none;stroke-width:0.0846667">H</tspan></text>
      <text
         style="font-variant:normal;font-weight:normal;font-stretch:normal;font-size:2.5146px;font-family:Arial;-inkscape-font-specification:ArialMT;writing-mode:lr-tb;display:inline;fill:#000000;fill-opacity:1;fill-rule:nonzero;stroke:none;stroke-width:0.0846667"
         id="text88490"
         x="187.69081"
         y="523.70734"><tspan
           x="187.69081"
           y="523.70734"
           id="tspan88488"
           style="stroke:none;stroke-width:0.0846667">H</tspan></text>
      <path
         id="rect1250185"
         style="font-variation-settings:normal;display:inline;opacity:1;fill:none;fill-opacity:1;stroke:#000000;stroke-width:0.127203;stroke-linecap:butt;stroke-linejoin:miter;stroke-miterlimit:4;stroke-dasharray:none;stroke-dashoffset:0;stroke-opacity:1;stop-color:#000000;stop-opacity:1"
         sodipodi:type="inkscape:offset"
         inkscape:radius="0"
         inkscape:original="M 0 0 L 0 420 L 594 420 L 594 0 L 0 0 z "
         d="M 0,0 V 420 H 594 V 0 Z"
         transform="matrix(1,0,0,2.002381,180.51321,137.80807)" />
      <path
         style="color:#000000;display:inline;fill:none;stroke:#000000;stroke-width:0.349999;stroke-miterlimit:4;stroke-dasharray:none"
         d="m 190.51322,147.80807 h 574 v 821 h -574 z"
         id="path1250976" />
      <path
         style="font-variation-settings:normal;display:inline;fill:none;fill-opacity:1;stroke:#000000;stroke-width:0.13;stroke-linecap:butt;stroke-linejoin:miter;stroke-miterlimit:4;stroke-dasharray:none;stroke-dashoffset:0;stroke-opacity:1;stop-color:#000000"
         d="m 240.51308,145.30701 v 2.50021"
         id="path1266738" />
      <path
         style="font-variation-settings:normal;display:inline;fill:none;fill-opacity:1;stroke:#000000;stroke-width:0.13;stroke-linecap:butt;stroke-linejoin:miter;stroke-miterlimit:4;stroke-dasharray:none;stroke-dashoffset:0;stroke-opacity:1;stop-color:#000000"
         d="m 290.51308,145.30701 v 2.50021"
         id="path1267642" />
      <path
         style="font-variation-settings:normal;display:inline;fill:none;fill-opacity:1;stroke:#000000;stroke-width:0.13;stroke-linecap:butt;stroke-linejoin:miter;stroke-miterlimit:4;stroke-dasharray:none;stroke-dashoffset:0;stroke-opacity:1;stop-color:#000000"
         d="m 340.51308,145.30701 v 2.50021"
         id="path1267644" />
      <path
         style="font-variation-settings:normal;display:inline;fill:none;fill-opacity:1;stroke:#000000;stroke-width:0.13;stroke-linecap:butt;stroke-linejoin:miter;stroke-miterlimit:4;stroke-dasharray:none;stroke-dashoffset:0;stroke-opacity:1;stop-color:#000000"
         d="m 390.51308,145.30701 v 2.50021"
         id="path1267646" />
      <path
         style="font-variation-settings:normal;display:inline;fill:none;fill-opacity:1;stroke:#000000;stroke-width:0.13;stroke-linecap:butt;stroke-linejoin:miter;stroke-miterlimit:4;stroke-dasharray:none;stroke-dashoffset:0;stroke-opacity:1;stop-color:#000000"
         d="m 440.51308,145.30701 v 2.50021"
         id="path1267648" />
      <path
         style="font-variation-settings:normal;display:inline;fill:none;fill-opacity:1;stroke:#000000;stroke-width:0.13;stroke-linecap:butt;stroke-linejoin:miter;stroke-miterlimit:4;stroke-dasharray:none;stroke-dashoffset:0;stroke-opacity:1;stop-color:#000000"
         d="m 490.51308,145.30701 v 2.50021"
         id="path1267650" />
      <path
         style="font-variation-settings:normal;display:inline;fill:none;fill-opacity:1;stroke:#000000;stroke-width:0.13;stroke-linecap:butt;stroke-linejoin:miter;stroke-miterlimit:4;stroke-dasharray:none;stroke-dashoffset:0;stroke-opacity:1;stop-color:#000000"
         d="m 540.51308,145.30701 v 2.50021"
         id="path1267652" />
      <path
         style="font-variation-settings:normal;display:inline;fill:none;fill-opacity:1;stroke:#000000;stroke-width:0.13;stroke-linecap:butt;stroke-linejoin:miter;stroke-miterlimit:4;stroke-dasharray:none;stroke-dashoffset:0;stroke-opacity:1;stop-color:#000000"
         d="m 590.51308,145.30701 v 2.50021"
         id="path1267654" />
      <path
         style="font-variation-settings:normal;display:inline;fill:none;fill-opacity:1;stroke:#000000;stroke-width:0.13;stroke-linecap:butt;stroke-linejoin:miter;stroke-miterlimit:4;stroke-dasharray:none;stroke-dashoffset:0;stroke-opacity:1;stop-color:#000000"
         d="m 640.51308,145.30701 v 2.50021"
         id="path1267656" />
      <path
         style="font-variation-settings:normal;display:inline;fill:none;fill-opacity:1;stroke:#000000;stroke-width:0.13;stroke-linecap:butt;stroke-linejoin:miter;stroke-miterlimit:4;stroke-dasharray:none;stroke-dashoffset:0;stroke-opacity:1;stop-color:#000000"
         d="m 690.51308,145.30701 v 2.50021"
         id="path1267658" />
      <path
         style="font-variation-settings:normal;display:inline;fill:none;fill-opacity:1;stroke:#000000;stroke-width:0.13;stroke-linecap:butt;stroke-linejoin:miter;stroke-miterlimit:4;stroke-dasharray:none;stroke-dashoffset:0;stroke-opacity:1;stop-color:#000000"
         d="m 740.51308,145.30701 v 2.50021"
         id="path1267660" />
      <path
         style="font-variation-settings:normal;display:inline;fill:none;fill-opacity:1;stroke:#000000;stroke-width:0.13;stroke-linecap:butt;stroke-linejoin:miter;stroke-miterlimit:4;stroke-dasharray:none;stroke-dashoffset:0;stroke-opacity:1;stop-color:#000000"
         d="m 240.51308,968.80807 v 2.5002"
         id="path1268522" />
      <path
         style="font-variation-settings:normal;display:inline;fill:none;fill-opacity:1;stroke:#000000;stroke-width:0.13;stroke-linecap:butt;stroke-linejoin:miter;stroke-miterlimit:4;stroke-dasharray:none;stroke-dashoffset:0;stroke-opacity:1;stop-color:#000000"
         d="m 290.51308,968.80807 v 2.5002"
         id="path1268524" />
      <path
         style="font-variation-settings:normal;display:inline;fill:none;fill-opacity:1;stroke:#000000;stroke-width:0.13;stroke-linecap:butt;stroke-linejoin:miter;stroke-miterlimit:4;stroke-dasharray:none;stroke-dashoffset:0;stroke-opacity:1;stop-color:#000000"
         d="m 340.51308,968.80807 v 2.5002"
         id="path1268526" />
      <path
         style="font-variation-settings:normal;display:inline;fill:none;fill-opacity:1;stroke:#000000;stroke-width:0.13;stroke-linecap:butt;stroke-linejoin:miter;stroke-miterlimit:4;stroke-dasharray:none;stroke-dashoffset:0;stroke-opacity:1;stop-color:#000000"
         d="m 390.51308,968.80807 v 2.5002"
         id="path1268528" />
      <path
         style="font-variation-settings:normal;display:inline;fill:none;fill-opacity:1;stroke:#000000;stroke-width:0.13;stroke-linecap:butt;stroke-linejoin:miter;stroke-miterlimit:4;stroke-dasharray:none;stroke-dashoffset:0;stroke-opacity:1;stop-color:#000000"
         d="m 440.51308,968.80807 v 2.5002"
         id="path1268530" />
      <path
         style="font-variation-settings:normal;display:inline;fill:none;fill-opacity:1;stroke:#000000;stroke-width:0.13;stroke-linecap:butt;stroke-linejoin:miter;stroke-miterlimit:4;stroke-dasharray:none;stroke-dashoffset:0;stroke-opacity:1;stop-color:#000000"
         d="m 490.51308,968.80807 v 2.5002"
         id="path1268532" />
      <path
         style="font-variation-settings:normal;display:inline;fill:none;fill-opacity:1;stroke:#000000;stroke-width:0.13;stroke-linecap:butt;stroke-linejoin:miter;stroke-miterlimit:4;stroke-dasharray:none;stroke-dashoffset:0;stroke-opacity:1;stop-color:#000000"
         d="m 540.51308,968.80807 v 2.5002"
         id="path1268534" />
      <path
         style="font-variation-settings:normal;display:inline;fill:none;fill-opacity:1;stroke:#000000;stroke-width:0.13;stroke-linecap:butt;stroke-linejoin:miter;stroke-miterlimit:4;stroke-dasharray:none;stroke-dashoffset:0;stroke-opacity:1;stop-color:#000000"
         d="m 590.51308,968.80807 v 2.5002"
         id="path1268536" />
      <path
         style="font-variation-settings:normal;display:inline;fill:none;fill-opacity:1;stroke:#000000;stroke-width:0.13;stroke-linecap:butt;stroke-linejoin:miter;stroke-miterlimit:4;stroke-dasharray:none;stroke-dashoffset:0;stroke-opacity:1;stop-color:#000000"
         d="m 640.51308,968.80807 v 2.5002"
         id="path1268538" />
      <path
         style="font-variation-settings:normal;display:inline;fill:none;fill-opacity:1;stroke:#000000;stroke-width:0.13;stroke-linecap:butt;stroke-linejoin:miter;stroke-miterlimit:4;stroke-dasharray:none;stroke-dashoffset:0;stroke-opacity:1;stop-color:#000000"
         d="m 690.51308,968.80807 v 2.5002"
         id="path1268540" />
      <path
         style="font-variation-settings:normal;display:inline;fill:none;fill-opacity:1;stroke:#000000;stroke-width:0.13;stroke-linecap:butt;stroke-linejoin:miter;stroke-miterlimit:4;stroke-dasharray:none;stroke-dashoffset:0;stroke-opacity:1;stop-color:#000000"
         d="m 188.01298,197.80754 h 2.50021"
         id="path47364" />
      <path
         style="font-variation-settings:normal;display:inline;fill:none;fill-opacity:1;stroke:#000000;stroke-width:0.13;stroke-linecap:butt;stroke-linejoin:miter;stroke-miterlimit:4;stroke-dasharray:none;stroke-dashoffset:0;stroke-opacity:1;stop-color:#000000"
         d="m 188.01298,247.80754 h 2.50021"
         id="path48088" />
      <path
         style="font-variation-settings:normal;display:inline;fill:none;fill-opacity:1;stroke:#000000;stroke-width:0.13;stroke-linecap:butt;stroke-linejoin:miter;stroke-miterlimit:4;stroke-dasharray:none;stroke-dashoffset:0;stroke-opacity:1;stop-color:#000000"
         d="m 188.01298,297.80754 h 2.50021"
         id="path48090" />
      <path
         style="font-variation-settings:normal;display:inline;fill:none;fill-opacity:1;stroke:#000000;stroke-width:0.13;stroke-linecap:butt;stroke-linejoin:miter;stroke-miterlimit:4;stroke-dasharray:none;stroke-dashoffset:0;stroke-opacity:1;stop-color:#000000"
         d="m 188.01298,347.80754 h 2.50021"
         id="path48092" />
      <path
         style="font-variation-settings:normal;display:inline;fill:none;fill-opacity:1;stroke:#000000;stroke-width:0.13;stroke-linecap:butt;stroke-linejoin:miter;stroke-miterlimit:4;stroke-dasharray:none;stroke-dashoffset:0;stroke-opacity:1;stop-color:#000000"
         d="m 188.01298,397.80754 h 2.50021"
         id="path48094" />
      <path
         style="font-variation-settings:normal;display:inline;fill:none;fill-opacity:1;stroke:#000000;stroke-width:0.13;stroke-linecap:butt;stroke-linejoin:miter;stroke-miterlimit:4;stroke-dasharray:none;stroke-dashoffset:0;stroke-opacity:1;stop-color:#000000"
         d="m 188.01298,447.80754 h 2.50021"
         id="path48096" />
      <path
         style="font-variation-settings:normal;display:inline;fill:none;fill-opacity:1;stroke:#000000;stroke-width:0.13;stroke-linecap:butt;stroke-linejoin:miter;stroke-miterlimit:4;stroke-dasharray:none;stroke-dashoffset:0;stroke-opacity:1;stop-color:#000000"
         d="m 188.01298,497.80754 h 2.50021"
         id="path48098" />
      <path
         style="font-variation-settings:normal;display:inline;fill:none;fill-opacity:1;stroke:#000000;stroke-width:0.13;stroke-linecap:butt;stroke-linejoin:miter;stroke-miterlimit:4;stroke-dasharray:none;stroke-dashoffset:0;stroke-opacity:1;stop-color:#000000"
         d="m 188.01298,547.80754 h 2.50021"
         id="path48100" />
      <path
         style="font-variation-settings:normal;display:inline;fill:none;fill-opacity:1;stroke:#000000;stroke-width:0.13;stroke-linecap:butt;stroke-linejoin:miter;stroke-miterlimit:4;stroke-dasharray:none;stroke-dashoffset:0;stroke-opacity:1;stop-color:#000000"
         d="m 764.51324,197.80756 h 2.5002"
         id="path48829" />
      <path
         style="font-variation-settings:normal;display:inline;fill:none;fill-opacity:1;stroke:#000000;stroke-width:0.13;stroke-linecap:butt;stroke-linejoin:miter;stroke-miterlimit:4;stroke-dasharray:none;stroke-dashoffset:0;stroke-opacity:1;stop-color:#000000"
         d="m 764.51324,247.80756 h 2.5002"
         id="path48831" />
      <path
         style="font-variation-settings:normal;display:inline;fill:none;fill-opacity:1;stroke:#000000;stroke-width:0.13;stroke-linecap:butt;stroke-linejoin:miter;stroke-miterlimit:4;stroke-dasharray:none;stroke-dashoffset:0;stroke-opacity:1;stop-color:#000000"
         d="m 764.51324,297.80756 h 2.5002"
         id="path48833" />
      <path
         style="font-variation-settings:normal;display:inline;fill:none;fill-opacity:1;stroke:#000000;stroke-width:0.13;stroke-linecap:butt;stroke-linejoin:miter;stroke-miterlimit:4;stroke-dasharray:none;stroke-dashoffset:0;stroke-opacity:1;stop-color:#000000"
         d="m 764.51324,347.80756 h 2.5002"
         id="path48835" />
      <path
         style="font-variation-settings:normal;display:inline;fill:none;fill-opacity:1;stroke:#000000;stroke-width:0.13;stroke-linecap:butt;stroke-linejoin:miter;stroke-miterlimit:4;stroke-dasharray:none;stroke-dashoffset:0;stroke-opacity:1;stop-color:#000000"
         d="m 764.51324,397.80756 h 2.5002"
         id="path48837" />
      <path
         style="font-variation-settings:normal;display:inline;fill:none;fill-opacity:1;stroke:#000000;stroke-width:0.13;stroke-linecap:butt;stroke-linejoin:miter;stroke-miterlimit:4;stroke-dasharray:none;stroke-dashoffset:0;stroke-opacity:1;stop-color:#000000"
         d="m 764.51324,447.80756 h 2.5002"
         id="path48839" />
      <path
         style="font-variation-settings:normal;display:inline;fill:none;fill-opacity:1;stroke:#000000;stroke-width:0.13;stroke-linecap:butt;stroke-linejoin:miter;stroke-miterlimit:4;stroke-dasharray:none;stroke-dashoffset:0;stroke-opacity:1;stop-color:#000000"
         d="m 764.51324,497.80756 h 2.5002"
         id="path48841" />
      <path
         style="font-variation-settings:normal;display:inline;fill:none;fill-opacity:1;stroke:#000000;stroke-width:0.13;stroke-linecap:butt;stroke-linejoin:miter;stroke-miterlimit:4;stroke-dasharray:none;stroke-dashoffset:0;stroke-opacity:1;stop-color:#000000"
         d="m 764.51324,547.80756 h 2.5002"
         id="path48843" />
      <text
         style="font-variant:normal;font-weight:normal;font-stretch:normal;font-size:2.5146px;font-family:Arial;-inkscape-font-specification:ArialMT;writing-mode:lr-tb;display:inline;fill:#000000;fill-opacity:1;fill-rule:nonzero;stroke:none;stroke-width:0.0846667"
         id="text120766"
         x="765.65936"
         y="773.70734"><tspan
           x="765.65936"
           y="773.70734"
           id="tspan120764"
           style="stroke:none;stroke-width:0.0846667">M</tspan></text>
      <text
         style="font-variant:normal;font-weight:normal;font-stretch:normal;font-size:2.5146px;font-family:Arial;-inkscape-font-specification:ArialMT;writing-mode:lr-tb;display:inline;fill:#000000;fill-opacity:1;fill-rule:nonzero;stroke:none;stroke-width:0.0846667"
         id="text120770"
         x="765.58875"
         y="723.70734"><tspan
           x="765.58875"
           y="723.70734"
           id="tspan120768"
           style="stroke:none;stroke-width:0.0846667">L</tspan></text>
      <text
         style="font-variant:normal;font-weight:normal;font-stretch:normal;font-size:2.5146px;font-family:Arial;-inkscape-font-specification:ArialMT;writing-mode:lr-tb;display:inline;fill:#000000;fill-opacity:1;fill-rule:nonzero;stroke:none;stroke-width:0.0846667"
         id="text120774"
         x="765.51947"
         y="673.70734"><tspan
           x="765.51947"
           y="673.70734"
           id="tspan120772"
           style="stroke:none;stroke-width:0.0846667">K</tspan></text>
      <text
         style="font-variant:normal;font-weight:normal;font-stretch:normal;font-size:2.5146px;font-family:Arial;-inkscape-font-specification:ArialMT;writing-mode:lr-tb;display:inline;fill:#000000;fill-opacity:1;fill-rule:nonzero;stroke:none;stroke-width:0.0846667"
         id="text120778"
         x="765.51947"
         y="623.70734"><tspan
           x="765.51947"
           y="623.70734"
           id="tspan120776"
           style="stroke:none;stroke-width:0.0846667">J</tspan></text>
      <text
         style="font-variant:normal;font-weight:normal;font-stretch:normal;font-size:2.5146px;font-family:Arial;-inkscape-font-specification:ArialMT;writing-mode:lr-tb;display:inline;fill:#000000;fill-opacity:1;fill-rule:nonzero;stroke:none;stroke-width:0.0846667"
         id="text120782"
         x="765.58875"
         y="573.7074"><tspan
           x="765.58875"
           y="573.7074"
           id="tspan120780"
           style="stroke:none;stroke-width:0.0846667">I</tspan></text>
      <text
         style="font-variant:normal;font-weight:normal;font-stretch:normal;font-size:2.5146px;font-family:Arial;-inkscape-font-specification:ArialMT;writing-mode:lr-tb;display:inline;fill:#000000;fill-opacity:1;fill-rule:nonzero;stroke:none;stroke-width:0.0846667"
         id="text120790"
         x="765.44934"
         y="823.7074"><tspan
           x="765.44934"
           y="823.7074"
           id="tspan120788"
           style="stroke:none;stroke-width:0.0846667">N</tspan></text>
      <text
         style="font-variant:normal;font-weight:normal;font-stretch:normal;font-size:2.5146px;font-family:Arial;-inkscape-font-specification:ArialMT;writing-mode:lr-tb;display:inline;fill:#000000;fill-opacity:1;fill-rule:nonzero;stroke:none;stroke-width:0.0846667"
         id="text120794"
         x="765.51947"
         y="873.70734"><tspan
           x="765.51947"
           y="873.70734"
           id="tspan120792"
           style="stroke:none;stroke-width:0.0846667">O</tspan></text>
      <path
         style="font-variation-settings:normal;display:inline;fill:none;fill-opacity:1;stroke:#000000;stroke-width:0.13;stroke-linecap:butt;stroke-linejoin:miter;stroke-miterlimit:4;stroke-dasharray:none;stroke-dashoffset:0;stroke-opacity:1;stop-color:#000000"
         d="m 764.51324,597.80756 h 2.5002"
         id="path120798" />
      <path
         style="font-variation-settings:normal;display:inline;fill:none;fill-opacity:1;stroke:#000000;stroke-width:0.13;stroke-linecap:butt;stroke-linejoin:miter;stroke-miterlimit:4;stroke-dasharray:none;stroke-dashoffset:0;stroke-opacity:1;stop-color:#000000"
         d="m 764.51324,647.80756 h 2.5002"
         id="path120800" />
      <path
         style="font-variation-settings:normal;display:inline;fill:none;fill-opacity:1;stroke:#000000;stroke-width:0.13;stroke-linecap:butt;stroke-linejoin:miter;stroke-miterlimit:4;stroke-dasharray:none;stroke-dashoffset:0;stroke-opacity:1;stop-color:#000000"
         d="m 764.51324,697.80756 h 2.5002"
         id="path120802" />
      <path
         style="font-variation-settings:normal;display:inline;fill:none;fill-opacity:1;stroke:#000000;stroke-width:0.13;stroke-linecap:butt;stroke-linejoin:miter;stroke-miterlimit:4;stroke-dasharray:none;stroke-dashoffset:0;stroke-opacity:1;stop-color:#000000"
         d="m 764.51324,747.80756 h 2.5002"
         id="path120804" />
      <path
         style="font-variation-settings:normal;display:inline;fill:none;fill-opacity:1;stroke:#000000;stroke-width:0.13;stroke-linecap:butt;stroke-linejoin:miter;stroke-miterlimit:4;stroke-dasharray:none;stroke-dashoffset:0;stroke-opacity:1;stop-color:#000000"
         d="m 764.51324,797.80756 h 2.5002"
         id="path120806" />
      <path
         style="font-variation-settings:normal;display:inline;fill:none;fill-opacity:1;stroke:#000000;stroke-width:0.13;stroke-linecap:butt;stroke-linejoin:miter;stroke-miterlimit:4;stroke-dasharray:none;stroke-dashoffset:0;stroke-opacity:1;stop-color:#000000"
         d="m 764.51324,847.80756 h 2.5002"
         id="path120808" />
      <path
         style="font-variation-settings:normal;display:inline;fill:none;fill-opacity:1;stroke:#000000;stroke-width:0.13;stroke-linecap:butt;stroke-linejoin:miter;stroke-miterlimit:4;stroke-dasharray:none;stroke-dashoffset:0;stroke-opacity:1;stop-color:#000000"
         d="m 764.51324,897.80756 h 2.5002"
         id="path120810" />
      <text
         style="font-variant:normal;font-weight:normal;font-stretch:normal;font-size:2.5146px;font-family:Arial;-inkscape-font-specification:ArialMT;writing-mode:lr-tb;display:inline;fill:#000000;fill-opacity:1;fill-rule:nonzero;stroke:none;stroke-width:0.0846667"
         id="text140552"
         x="765.51947"
         y="923.70734"><tspan
           x="765.51947"
           y="923.70734"
           id="tspan140550"
           style="stroke:none;stroke-width:0.0846667">P</tspan></text>
      <path
         style="font-variation-settings:normal;display:inline;fill:none;fill-opacity:1;stroke:#000000;stroke-width:0.13;stroke-linecap:butt;stroke-linejoin:miter;stroke-miterlimit:4;stroke-dasharray:none;stroke-dashoffset:0;stroke-opacity:1;stop-color:#000000"
         d="m 764.51324,947.80756 h 2.5002"
         id="path140554" />
      <text
         style="font-variant:normal;font-weight:normal;font-stretch:normal;font-size:2.5146px;font-family:Arial;-inkscape-font-specification:ArialMT;writing-mode:lr-tb;display:inline;fill:#000000;fill-opacity:1;fill-rule:nonzero;stroke:none;stroke-width:0.0846667"
         id="text141684"
         x="187.39981"
         y="773.70734"><tspan
           x="187.39981"
           y="773.70734"
           id="tspan141682"
           style="stroke:none;stroke-width:0.0846667">M</tspan></text>
      <text
         style="font-variant:normal;font-weight:normal;font-stretch:normal;font-size:2.5146px;font-family:Arial;-inkscape-font-specification:ArialMT;writing-mode:lr-tb;display:inline;fill:#000000;fill-opacity:1;fill-rule:nonzero;stroke:none;stroke-width:0.0846667"
         id="text141688"
         x="187.99532"
         y="723.70734"><tspan
           x="187.99532"
           y="723.70734"
           id="tspan141686"
           style="stroke:none;stroke-width:0.0846667">L</tspan></text>
      <text
         style="font-variant:normal;font-weight:normal;font-stretch:normal;font-size:2.5146px;font-family:Arial;-inkscape-font-specification:ArialMT;writing-mode:lr-tb;display:inline;fill:#000000;fill-opacity:1;fill-rule:nonzero;stroke:none;stroke-width:0.0846667"
         id="text141692"
         x="187.63188"
         y="673.70734"><tspan
           x="187.63188"
           y="673.70734"
           id="tspan141690"
           style="stroke:none;stroke-width:0.0846667">K</tspan></text>
      <text
         style="font-variant:normal;font-weight:normal;font-stretch:normal;font-size:2.5146px;font-family:Arial;-inkscape-font-specification:ArialMT;writing-mode:lr-tb;display:inline;fill:#000000;fill-opacity:1;fill-rule:nonzero;stroke:none;stroke-width:0.0846667"
         id="text141696"
         x="188.24211"
         y="623.70734"><tspan
           x="188.24211"
           y="623.70734"
           id="tspan141694"
           style="stroke:none;stroke-width:0.0846667">J</tspan></text>
      <text
         style="font-variant:normal;font-weight:normal;font-stretch:normal;font-size:2.5146px;font-family:Arial;-inkscape-font-specification:ArialMT;writing-mode:lr-tb;display:inline;fill:#000000;fill-opacity:1;fill-rule:nonzero;stroke:none;stroke-width:0.0846667"
         id="text141700"
         x="188.83147"
         y="573.7074"><tspan
           x="188.83147"
           y="573.7074"
           id="tspan141698"
           style="stroke:none;stroke-width:0.0846667">I</tspan></text>
      <text
         style="font-variant:normal;font-weight:normal;font-stretch:normal;font-size:2.5146px;font-family:Arial;-inkscape-font-specification:ArialMT;writing-mode:lr-tb;display:inline;fill:#000000;fill-opacity:1;fill-rule:nonzero;stroke:none;stroke-width:0.0846667"
         id="text141704"
         x="187.6945"
         y="823.7074"><tspan
           x="187.6945"
           y="823.7074"
           id="tspan141702"
           style="stroke:none;stroke-width:0.0846667">N</tspan></text>
      <text
         style="font-variant:normal;font-weight:normal;font-stretch:normal;font-size:2.5146px;font-family:Arial;-inkscape-font-specification:ArialMT;writing-mode:lr-tb;display:inline;fill:#000000;fill-opacity:1;fill-rule:nonzero;stroke:none;stroke-width:0.0846667"
         id="text141708"
         x="187.46121"
         y="873.70734"><tspan
           x="187.46121"
           y="873.70734"
           id="tspan141706"
           style="stroke:none;stroke-width:0.0846667">O</tspan></text>
      <path
         style="font-variation-settings:normal;display:inline;fill:none;fill-opacity:1;stroke:#000000;stroke-width:0.13;stroke-linecap:butt;stroke-linejoin:miter;stroke-miterlimit:4;stroke-dasharray:none;stroke-dashoffset:0;stroke-opacity:1;stop-color:#000000"
         d="m 188.01302,597.80754 h 2.5002"
         id="path141710" />
      <path
         style="font-variation-settings:normal;display:inline;fill:none;fill-opacity:1;stroke:#000000;stroke-width:0.13;stroke-linecap:butt;stroke-linejoin:miter;stroke-miterlimit:4;stroke-dasharray:none;stroke-dashoffset:0;stroke-opacity:1;stop-color:#000000"
         d="m 188.01302,647.80754 h 2.5002"
         id="path141712" />
      <path
         style="font-variation-settings:normal;display:inline;fill:none;fill-opacity:1;stroke:#000000;stroke-width:0.13;stroke-linecap:butt;stroke-linejoin:miter;stroke-miterlimit:4;stroke-dasharray:none;stroke-dashoffset:0;stroke-opacity:1;stop-color:#000000"
         d="m 188.01302,697.80754 h 2.5002"
         id="path141714" />
      <path
         style="font-variation-settings:normal;display:inline;fill:none;fill-opacity:1;stroke:#000000;stroke-width:0.13;stroke-linecap:butt;stroke-linejoin:miter;stroke-miterlimit:4;stroke-dasharray:none;stroke-dashoffset:0;stroke-opacity:1;stop-color:#000000"
         d="m 188.01302,747.80754 h 2.5002"
         id="path141716" />
      <path
         style="font-variation-settings:normal;display:inline;fill:none;fill-opacity:1;stroke:#000000;stroke-width:0.13;stroke-linecap:butt;stroke-linejoin:miter;stroke-miterlimit:4;stroke-dasharray:none;stroke-dashoffset:0;stroke-opacity:1;stop-color:#000000"
         d="m 188.01302,797.80754 h 2.5002"
         id="path141718" />
      <path
         style="font-variation-settings:normal;display:inline;fill:none;fill-opacity:1;stroke:#000000;stroke-width:0.13;stroke-linecap:butt;stroke-linejoin:miter;stroke-miterlimit:4;stroke-dasharray:none;stroke-dashoffset:0;stroke-opacity:1;stop-color:#000000"
         d="m 188.01302,847.80754 h 2.5002"
         id="path141720" />
      <path
         style="font-variation-settings:normal;display:inline;fill:none;fill-opacity:1;stroke:#000000;stroke-width:0.13;stroke-linecap:butt;stroke-linejoin:miter;stroke-miterlimit:4;stroke-dasharray:none;stroke-dashoffset:0;stroke-opacity:1;stop-color:#000000"
         d="m 188.01302,897.80754 h 2.5002"
         id="path141722" />
      <text
         style="font-variant:normal;font-weight:normal;font-stretch:normal;font-size:2.5146px;font-family:Arial;-inkscape-font-specification:ArialMT;writing-mode:lr-tb;display:inline;fill:#000000;fill-opacity:1;fill-rule:nonzero;stroke:none;stroke-width:0.0846667"
         id="text141726"
         x="187.73625"
         y="923.70734"><tspan
           x="187.73625"
           y="923.70734"
           id="tspan141724"
           style="stroke:none;stroke-width:0.0846667">P</tspan></text>
      <path
         style="font-variation-settings:normal;display:inline;fill:none;fill-opacity:1;stroke:#000000;stroke-width:0.13;stroke-linecap:butt;stroke-linejoin:miter;stroke-miterlimit:4;stroke-dasharray:none;stroke-dashoffset:0;stroke-opacity:1;stop-color:#000000"
         d="m 188.01302,947.80754 h 2.5002"
         id="path141728" />
    </g>
  </g>
</svg>
